{"buildings":[{"id":"674","name":"Acqua Veneto","description":"Últimas unidades neste empreendimento, que oferece apartamentos aconchegantes com uma arquitetura moderna e acabamento de altíssimo padrão em todos os detalhes. O conforto, a beleza e o requinte do projeto inovador proporcionam uma perfeita harmonia para você apreciar os melhores momentos da vida com a conveniência de morar no centro da cidade. Construído com materiais nobres e contemporâneos, o empreendimento encanta pelo requinte e sofisticação. Tudo foi planejado para que a qualidade de vida da sua família seja inigualável. Preço e disponibilidade do imóvel sujeitos a alteração sem aviso prévio.","min_price":516150.0,"min_area":107.03,"max_area":107.03,"min_bedrooms":2,"max_bedrooms":2,"min_suites":1,"max_suites":1,"min_parking":2,"max_parking":2,"min_bathrooms":3,"max_bathrooms":3,"price_per_private_square_meter":4822.0,"status":"Pronto novo","apts_per_floor":2,"number_of_floors":9,"features":["Churrasqueira condominial","Circuito de TV","Elevador social","Espaço gourmet","Gás central condominial","Jardim","Salão de festas","Segurança"],"stock":2,"finality":"Residencial","updated_at":"15/12/2020 12:35:58","orulo_url":"https://www.orulo.com.br/buildings/674","developer":{"id":"521","name":"BDC"},"publisher":{"id":"521","name":"BDC"},"address":{"street_type":"Rua","street":"Frederico Guilherme Ludwig","number":43,"area":"Centro","city":"Canoas","latitude":-29.9128,"longitude":-51.1865,"state":"RS","zip_code":"92310-240"},"opportunity":{"broker":false,"client":false,"exchange_units":false},"default_image":{"id":"201785","description":"Fachada","200x140":"https://s3.amazonaws.com/uploaded.prod.corretordireto/images/properties/thumb/201785.png?1564162232","520x280":"https://s3.amazonaws.com/uploaded.prod.corretordireto/images/properties/featured_modern_without_watermark/201785.png?1564162232"}},{"id":"1709","name":"SLP Casa 211","description":"Casa com 3 dormitórios, suíte master com closet, ar split, hidro, sacada, gabinete, living com lavabo, jantar com churrasqueira interna, cozinha semi-mobiliada, os outros 2 dormitórios com closet. Lavanderia com dependência completa de empregada e salão de festas. Com área total de 558,00m², garagem para 6 carros. Imóvel possui também perfil comercial. Preço e disponibilidade do imóvel sujeitos a alteração sem aviso prévio.","min_price":1060000.0,"min_area":558.0,"max_area":558.0,"min_bedrooms":3,"max_bedrooms":3,"min_suites":1,"max_suites":1,"min_parking":6,"max_parking":6,"min_bathrooms":2,"max_bathrooms":2,"price_per_private_square_meter":1900.0,"status":"Usado","features":[],"stock":1,"finality":"Residencial","updated_at":"14/12/2020 21:35:30","orulo_url":"https://www.orulo.com.br/buildings/1709","developer":{"id":"519","name":"Rotta Ely Dações"},"publisher":{"id":"519","name":"Rotta Ely Dações"},"address":{"street_type":"Rua","street":"Peru","number":211,"area":"São José","city":"Canoas","latitude":-29.8867,"longitude":-51.1775,"state":"RS","zip_code":"92420-300"},"opportunity":{"broker":false,"client":false,"exchange_units":true},"default_image":{"id":"113220","description":"Fachada","200x140":"https://s3.amazonaws.com/uploaded.prod.corretordireto/images/properties/thumb/113220.png?1532611047","520x280":"https://s3.amazonaws.com/uploaded.prod.corretordireto/images/properties/featured_modern_without_watermark/113220.png?1532611047"}},{"id":"17171","name":"Edifício Gran Palace Apto AP0007GITF","description":"Este é o apartamento perfeito para você se conectar com a vida urbana desfrutando com muito conforto dos melhores momentos em família. Totalmente mobiliado, na melhor localização da cidade de canoas, edifício Gran Palace, na Rua Caramuru nº 21. Em andar alto e com linda vista da cidade, este belíssimo apartamento de alto padrão conta com 2 espaçosos dormitórios sendo um deles suíte, amplo living para 2 ambientes, cozinha estilo americana com churrasqueira, área de serviço fechada em vidro e 2 vagas de garagem independentes e cobertas. Além de toda a decoração e detalhes de acabamento em alto padrão, o apartamento está a venda totalmente mobiliado. Além disso, o edifício Gran Palace conta com uma infraestrutura pensada em todos os detalhes de conforto e segurança aos seus moradores. Portaria 24h, Piscina e ofurô, Academia, amplo salão de festas, Briquedoteca, Bicicletário e 2 elevadores. Agende uma visita e surpreenda-se! Preço e disponibilidade do imóvel sujeitos a alteração sem aviso prévio.","min_price":549000.0,"min_area":61.73,"max_area":61.73,"min_bedrooms":2,"max_bedrooms":2,"min_suites":1,"max_suites":1,"min_parking":2,"max_parking":2,"min_bathrooms":3,"max_bathrooms":3,"price_per_private_square_meter":8894.0,"status":"Usado","number_of_floors":11,"features":[],"stock":1,"finality":"Residencial","updated_at":"14/12/2020 17:58:50","orulo_url":"https://www.orulo.com.br/buildings/17171","developer":{"id":"1170","name":"REMAX 520 Exclusividades"},"publisher":{"id":"1170","name":"REMAX 520 Exclusividades"},"address":{"street_type":"Rua","street":"Caramuru","number":21,"area":"Centro","city":"Canoas","latitude":-29.9143,"longitude":-51.1801,"state":"RS","zip_code":"92010-160"},"opportunity":{"broker":false,"client":false,"exchange_units":false},"default_image":{"id":"526276","description":"","200x140":"https://s3.amazonaws.com/uploaded.prod.corretordireto/images/properties/thumb/526276.jpeg?1607490067","520x280":"https://s3.amazonaws.com/uploaded.prod.corretordireto/images/properties/featured_modern_without_watermark/526276.jpeg?1607490067"}},{"id":"15921","name":"QDPF 0 Casa SO0011GITF","description":"Sobrado com 03 dormitórios no Quintas de Palermo em Canoas, com 106m² de área privativa, sendo uma ampla suíte com sacada, vista para praça arborizada e sol da manhã, sala de estar e jantar com piso em porcelanato, banheiro social, área de serviço separada, lavabo, pátio com churrasqueira e 02 vagas de estacionamento. Possui espera para ar condicionado e aquecimento a gás. Além disso uma localização privilegiada próximo ao Park Shopping Canoas. Aceita financiamento e fgts. Preço e disponibilidade do imóvel sujeitos a alteração sem aviso prévio.","min_price":469000.0,"min_area":106.0,"max_area":106.0,"min_bedrooms":3,"max_bedrooms":3,"min_suites":1,"max_suites":1,"min_parking":2,"max_parking":2,"min_bathrooms":4,"max_bathrooms":4,"price_per_private_square_meter":4425.0,"status":"Usado","features":[],"stock":1,"finality":"Residencial","updated_at":"14/12/2020 17:58:50","orulo_url":"https://www.orulo.com.br/buildings/15921","developer":{"id":"1170","name":"REMAX 520 Exclusividades"},"publisher":{"id":"1170","name":"REMAX 520 Exclusividades"},"address":{"street_type":"Rua","street":"Ferrara","number":0,"area":"Estância Velha","city":"Canoas","latitude":-29.9189,"longitude":-51.1482,"state":"RS","zip_code":"92030-084"},"opportunity":{"broker":false,"client":false,"exchange_units":false},"default_image":{"id":"492707","description":"","200x140":"https://s3.amazonaws.com/uploaded.prod.corretordireto/images/properties/thumb/492707.jpeg?1604121103","520x280":"https://s3.amazonaws.com/uploaded.prod.corretordireto/images/properties/featured_modern_without_watermark/492707.jpeg?1604121103"}},{"id":"15922","name":"MMM 41 SO0010GITF","description":"Espetacular sobrado com 3 suítes no bairro Mont Serrat em Canoas, com 235m² de área construída. No primeiro pavimento amplo living, ampla cozinha em conceito aberto, churrasqueira, lavanderia, lavabo, garagem para 4 veículos sendo duas vagas cobertas, pátio nos fundos com espaço para colocação de piscina e pátio em frente a residência. No piso superior 3 amplas suítes sendo uma master com 30m² e sacada, outra suíte com terraço. Acabamento classe A com materiais de primeira qualidade. Porcelanato no piso térreo, laminado nos dormitórios e acabamento em gesso! Localização espetacular na cidade em bairro nobre. localizado a 3 minutos do Park Shopping de Canoas. Aceita Financiamento e FGTS! Preço e disponibilidade do imóvel sujeitos a alteração sem aviso prévio.","min_price":920000.0,"min_area":235.0,"max_area":235.0,"min_bedrooms":3,"max_bedrooms":3,"min_suites":3,"max_suites":3,"min_parking":4,"max_parking":4,"min_bathrooms":7,"max_bathrooms":7,"price_per_private_square_meter":3915.0,"status":"Usado","features":[],"stock":1,"finality":"Residencial","updated_at":"14/12/2020 17:58:50","orulo_url":"https://www.orulo.com.br/buildings/15922","developer":{"id":"1170","name":"REMAX 520 Exclusividades"},"publisher":{"id":"1170","name":"REMAX 520 Exclusividades"},"address":{"street_type":"Rua","street":"Monte Moriáh","number":41,"area":"Estância Velha","city":"Canoas","latitude":-29.9143,"longitude":-51.1532,"state":"RS","zip_code":"92031-135"},"opportunity":{"broker":false,"client":false,"exchange_units":false},"default_image":{"id":"492728","description":"","200x140":"https://s3.amazonaws.com/uploaded.prod.corretordireto/images/properties/thumb/492728.jpeg?1604121617","520x280":"https://s3.amazonaws.com/uploaded.prod.corretordireto/images/properties/featured_modern_without_watermark/492728.jpeg?1604121617"}},{"id":"15923","name":"MCMDA 112 SO0009GITF","description":"Fantástico sobrado no bairro Mont Serrat em Canoas! Com excelente localização no bairro, este incrível sobrado conta com 225m² de área construída! No pavimento térreo amplo living com lareira, espaço gourmet, cozinha, área de serviço, lavabo, 2 vagas de garagem cobertas lado a lado, pátio nos fundos com espaço para colocação de piscina e jardim em frente a residência. Subindo por uma linda escada em mármore e corrimões em aço inox encontram-se 3 amplas suítes, sendo uma suíte master com hidro, sacada e espaço para closet. Em outra suíte um amplo terraço. Conta também com espaço para escritório. Rica em detalhes em todo o acabamento, com piso porcelanato no pavimento térreo, laminado no pavimento superior e gesso além de espera para água quente para os banheiros e cozinha. Aceita financiamento bancário e FGTS! Visite e surpreenda-se! Preço e disponibilidade do imóvel sujeitos a alteração sem aviso prévio.","min_price":950000.0,"min_area":225.0,"max_area":225.0,"min_bedrooms":3,"max_bedrooms":3,"min_suites":3,"max_suites":3,"min_parking":2,"max_parking":2,"min_bathrooms":7,"max_bathrooms":7,"price_per_private_square_meter":4222.0,"status":"Usado","number_of_floors":2,"features":[],"stock":1,"finality":"Residencial","updated_at":"14/12/2020 17:58:50","orulo_url":"https://www.orulo.com.br/buildings/15923","developer":{"id":"1170","name":"REMAX 520 Exclusividades"},"publisher":{"id":"1170","name":"REMAX 520 Exclusividades"},"address":{"street_type":"Rua","street":"Constantino Moura de Azevedo","number":112,"area":"Estância Velha","city":"Canoas","latitude":-29.9136,"longitude":-51.1518,"state":"RS","zip_code":"92031-170"},"opportunity":{"broker":false,"client":false,"exchange_units":false},"default_image":{"id":"492739","description":"","200x140":"https://s3.amazonaws.com/uploaded.prod.corretordireto/images/properties/thumb/492739.jpeg?1604121912","520x280":"https://s3.amazonaws.com/uploaded.prod.corretordireto/images/properties/featured_modern_without_watermark/492739.jpeg?1604121912"}},{"id":"15929","name":"QDPR 113 SO0003GITF","description":"Lindo sobrado com 160 m² em alto padrão, Loteamento Quintas de Palermo, poucos metros da Av. Dr. Sezefredo Azambuja Vieira. No piso térreo a residencia conta com amplo Living, cozinha em conceito aberto, lavabo, amplo pátio nos fundos com varanda gourmet coberta com churrasqueira e 2 vagas de garagem no pátio em frente. Subindo ao segundo pavimento por uma linda e iluminada escada com corrimão em aço inox, conta com 3 amplos dormitórios sendo uma ampla suíte, banheiro social e sacada no dormitório de casal com vista a linda praça em frente ao imóvel. Além de espetacular iluminação e ventilação em toda a residência, ainda conta com espera para split´s e água quente. Localiza-se em região privilegiada da cidade em rua calma e tranquila contemplada com uma bela praça, próximo ao Park Shopping Canoas, Bourbon Hipermercados, Farmácias e demais conveniências da região. Aceita Financiamento e FGTS! Preço e disponibilidade do imóvel sujeitos a alteração sem aviso prévio.","min_price":635000.0,"min_area":160.0,"max_area":160.0,"min_bedrooms":3,"max_bedrooms":3,"min_suites":0,"max_suites":0,"min_parking":2,"max_parking":2,"min_bathrooms":3,"max_bathrooms":3,"price_per_private_square_meter":3969.0,"status":"Usado","number_of_floors":2,"features":[],"stock":1,"finality":"Residencial","updated_at":"14/12/2020 17:58:50","orulo_url":"https://www.orulo.com.br/buildings/15929","developer":{"id":"1170","name":"REMAX 520 Exclusividades"},"publisher":{"id":"1170","name":"REMAX 520 Exclusividades"},"address":{"street_type":"Rua","street":"Ravena","number":113,"area":"Estância Velha","city":"Canoas","latitude":-29.918,"longitude":-51.1469,"state":"RS","zip_code":"92030-086"},"opportunity":{"broker":false,"client":false,"exchange_units":false},"default_image":{"id":"492889","description":"","200x140":"https://s3.amazonaws.com/uploaded.prod.corretordireto/images/properties/thumb/492889.jpeg?1604125520","520x280":"https://s3.amazonaws.com/uploaded.prod.corretordireto/images/properties/featured_modern_without_watermark/492889.jpeg?1604125520"}},{"id":"16849","name":"Residencial Domani Apto AP0004GITF","description":"O Condomínio Residencial Domani destaca-se no programa Minha Casa Verde Amarela em razão do impecável acabamento e qualidade da obra! O empreendimento conta com 8 torres residenciais, todas com elevador, apartamentos com box de garagem privativo e churrasqueira. Todas as peças muito bem distribuídas. Além disso, o condomínio conta com infra completa de lazer e segurança: Guarita, Playground, Espaço Delivery, Sala Multiuso, Salão de Festas, Coworking, Brinquedoteca, Quadra Poliesportiva, Piscinas, Bicicletário, Horta comunitária, Espaço Pet, Chimarródromo, Pista de Caminhada, Coleta de Resíduos. Localizado próximo a Porto Alegre, a 7 min do Aeroporto Salgado Filho, 15 min do centro de Porto Alegre e fácil acesso à Rodovia do Parque. Aceita Financiamento Minha Casa Verde Amarela e FGTS! Entrada parcelada até a conclusão da obra! Preço e disponibilidade do imóvel sujeitos a alteração sem aviso prévio.","min_price":184000.0,"min_area":52.0,"max_area":52.0,"min_bedrooms":2,"max_bedrooms":2,"min_suites":0,"max_suites":0,"min_parking":1,"max_parking":1,"min_bathrooms":1,"max_bathrooms":1,"price_per_private_square_meter":3538.0,"status":"Pronto novo","number_of_floors":7,"features":[],"stock":1,"finality":"Residencial","updated_at":"14/12/2020 17:58:50","orulo_url":"https://www.orulo.com.br/buildings/16849","developer":{"id":"1170","name":"REMAX 520 Exclusividades"},"publisher":{"id":"1170","name":"REMAX 520 Exclusividades"},"address":{"street_type":"Rua","street":"Dom João Becker","number":1781,"area":"Fátima","city":"Canoas","latitude":-29.9463,"longitude":-51.1856,"state":"RS","zip_code":"92200-722"},"opportunity":{"broker":false,"client":false,"exchange_units":false},"default_image":{"id":"518622","description":"","200x140":"https://s3.amazonaws.com/uploaded.prod.corretordireto/images/properties/thumb/518622.jpeg?1606366888","520x280":"https://s3.amazonaws.com/uploaded.prod.corretordireto/images/properties/featured_modern_without_watermark/518622.jpeg?1606366888"}},{"id":"15925","name":"IDG 51 Casa SO0007GITF","description":"Sobrado com excelente acabamento, localizado no bairro Igara. Conta com 122 m² de área construída, peças amplas com ótima iluminação e ventilação. No primeiro pavimento ampla sala de estar/jantar, cozinha em conceito aberto com churrasqueira, lavanderia, lavabo, pátio nos fundos e 2 vagas de garagem em frente a residência. No piso superior 3 dormitórios sendo uma ampla suíte com sacada e banheiro social para atender os demais dormitórios. Conta com central de gás, água quente para os banheiros e cozinha além de espera para ar condicionado Split nos ambientes. Ótima localização no bairro próximo a Av. Açucena, recursos do bairro e de fácil acesso a toda região metropolitana. Imóvel em fase final de construção com previsão de entrega para Outubro/2020. Aceita Financiamento e FGTS! Preço e disponibilidade do imóvel sujeitos a alteração sem aviso prévio.","min_price":404300.0,"min_area":122.0,"max_area":122.0,"min_bedrooms":3,"max_bedrooms":3,"min_suites":1,"max_suites":1,"min_parking":2,"max_parking":2,"min_bathrooms":4,"max_bathrooms":4,"price_per_private_square_meter":3314.0,"status":"Usado","features":[],"stock":1,"finality":"Residencial","updated_at":"14/12/2020 17:58:50","orulo_url":"https://www.orulo.com.br/buildings/15925","developer":{"id":"1170","name":"REMAX 520 Exclusividades"},"publisher":{"id":"1170","name":"REMAX 520 Exclusividades"},"address":{"street_type":"Rua","street":"Dos Guatambus","number":51,"area":"Igara","city":"Canoas","latitude":-29.8977,"longitude":-51.1503,"state":"RS","zip_code":"92412-485"},"opportunity":{"broker":false,"client":false,"exchange_units":false},"default_image":{"id":"492793","description":"","200x140":"https://s3.amazonaws.com/uploaded.prod.corretordireto/images/properties/thumb/492793.jpeg?1604123301","520x280":"https://s3.amazonaws.com/uploaded.prod.corretordireto/images/properties/featured_modern_without_watermark/492793.jpeg?1604123301"}},{"id":"15927","name":"IDJ 262 Casa SO0005GITF","description":"Lindo sobrado de esquina com excelente localização no bairro Igara com peças amplas e bem distribuídas em 120m². No piso térreo amplo living em conceito aberto para os 3 ambientes (sala de estar, sala de jantar e cozinha), lavabo, pátio nos fundos com churrasqueira, pátio lateral e em frente a residência com 2 vagas de garagem. No piso superior 3 dormitórios amplos sendo uma suíte com sacada, banheiro social. Acabamento classe A, rico em detalhes e em fase final de acabamento. De frente a uma linda praça, próximo a escola infantil e demais recursos do bairro. Aceita Financiamento e FGTS! Agende uma visita! Preço e disponibilidade do imóvel sujeitos a alteração sem aviso prévio.","min_price":450000.0,"min_area":120.0,"max_area":120.0,"min_bedrooms":3,"max_bedrooms":3,"min_suites":1,"max_suites":1,"min_parking":2,"max_parking":2,"min_bathrooms":4,"max_bathrooms":4,"price_per_private_square_meter":3750.0,"status":"Usado","features":[],"stock":1,"finality":"Residencial","updated_at":"14/12/2020 17:58:50","orulo_url":"https://www.orulo.com.br/buildings/15927","developer":{"id":"1170","name":"REMAX 520 Exclusividades"},"publisher":{"id":"1170","name":"REMAX 520 Exclusividades"},"address":{"street_type":"Rua","street":"Dos Jaborandis","number":262,"area":"Igara","city":"Canoas","latitude":-29.8962,"longitude":-51.1499,"state":"RS","zip_code":"92412-480"},"opportunity":{"broker":false,"client":false,"exchange_units":false},"default_image":{"id":"492829","description":"","200x140":"https://s3.amazonaws.com/uploaded.prod.corretordireto/images/properties/thumb/492829.jpeg?1604124197","520x280":"https://s3.amazonaws.com/uploaded.prod.corretordireto/images/properties/featured_modern_without_watermark/492829.jpeg?1604124197"}}],"total":70,"page":4,"total_pages":7}