{"buildings":[{"id":"15928","name":"IPDF 1 Casa SO0004GITF","description":"Excelentes sobrados em fase final de acabamento, localizados no Loteamento Morada do Campus no bairro Igara. Com 120m² de área construída, possuem 3 dormitórios sendo uma ampla suíte com sacada, padrão construtivo classe A, ampla área social, cozinha integrada, lavabo, varanda gourmet com churrasqueira, lavanderia, pátio nos fundos da residência, 02 vagas de garagem. Piso inferior em porcelanato e superior em laminado, escada revestida em madeira e guarda corpo em vidro temperado. Possui uma excelente localização no bairro Igara, próximo ao mercado Unisuper, praças, colégios e farmácias. Aceita Financiamento e FGTS! Preço e disponibilidade do imóvel sujeitos a alteração sem aviso prévio.","min_price":521260.0,"min_area":120.0,"max_area":120.0,"min_bedrooms":3,"max_bedrooms":3,"min_suites":1,"max_suites":1,"min_parking":2,"max_parking":2,"min_bathrooms":4,"max_bathrooms":4,"price_per_private_square_meter":4344.0,"status":"Usado","features":[],"stock":1,"finality":"Residencial","updated_at":"14/12/2020 17:58:50","orulo_url":"https://www.orulo.com.br/buildings/15928","developer":{"id":"1170","name":"REMAX 520 Exclusividades"},"publisher":{"id":"1170","name":"REMAX 520 Exclusividades"},"address":{"street_type":"Rua","street":"Professora Delphina Ferrari","number":1,"area":"Igara","city":"Canoas","latitude":-29.8956,"longitude":-51.1617,"state":"RS","zip_code":"92410-232"},"opportunity":{"broker":false,"client":false,"exchange_units":false},"default_image":{"id":"492856","description":"","200x140":"https://s3.amazonaws.com/uploaded.prod.corretordireto/images/properties/thumb/492856.jpeg?1604124879","520x280":"https://s3.amazonaws.com/uploaded.prod.corretordireto/images/properties/featured_modern_without_watermark/492856.jpeg?1604124879"}},{"id":"16553","name":"IRN 616 Casa CA0006GITF","description":"Residência com 03 dormitórios, no bairro Igara, em Canoas. Medindo 158 m² de área construída está assentada em um terreno de esquina com 13,20 x 36 (475,20 m²). Possui 03 quartos / dormitórios, sala de estar, banheiro social, cozinha integrada com a sala de jantar, ampla varanda com churrasqueira, banheiro auxiliar, lavanderia e dependência de empregada. Está munida, também, com junker para aquecimento de água. O piso é do tipo cerâmico. No imóvel, há duas garagens cobertas. Uma parte da frente da casa, que comporta 01 veículo, coberto, e mais 02 descobertos. A outra, no pátio dos fundos, medindo 18 m², tem capacidade para um automóvel. No quintal, nos fundos, há espaço para instalação de piscina, pois já existe a espera hidráulica para isso. Além disso, por se tratar de imóvel com grande área superficial, é ideal para investidores e/ou construtores que poderão construir no local outros imóveis como sobrados e lojas comerciais ou, ainda, uma nova residência de alto padrão, com muito valor agregado devido à sua localização e posição. Está localizada na rua Rio Negro, no bairro Igara, próxima da Avenida Boqueirão, que oferece facilidade de deslocamento para o Centro de Canoas, Porto Alegre, Vale dos Sinos e Serra. Além disso, está próxima de comércio variado e serviços públicos, como, por exemplo, supermercados, restaurantes, agências bancárias, UPA, Universidade, 02 Shoppings Centers, etc. Completamente regularizada e quitada, pode ser financiada na rede bancária, inclusive com uso do FGTS. Preço e disponibilidade do imóvel sujeitos a alteração sem aviso prévio.","min_price":500000.0,"min_area":158.0,"max_area":158.0,"min_bedrooms":3,"max_bedrooms":3,"min_suites":0,"max_suites":0,"min_parking":4,"max_parking":4,"min_bathrooms":2,"max_bathrooms":2,"price_per_private_square_meter":3165.0,"status":"Usado","features":[],"stock":1,"finality":"Residencial","updated_at":"14/12/2020 17:58:50","orulo_url":"https://www.orulo.com.br/buildings/16553","developer":{"id":"1170","name":"REMAX 520 Exclusividades"},"publisher":{"id":"1170","name":"REMAX 520 Exclusividades"},"address":{"street_type":"Rua","street":"Rio Negro","number":616,"area":"Igara","city":"Canoas","latitude":-29.9034,"longitude":-51.168,"state":"RS","zip_code":"92410-460"},"opportunity":{"broker":false,"client":false,"exchange_units":false},"default_image":{"id":"509601","description":"","200x140":"https://s3.amazonaws.com/uploaded.prod.corretordireto/images/properties/thumb/509601.jpeg?1605243653","520x280":"https://s3.amazonaws.com/uploaded.prod.corretordireto/images/properties/featured_modern_without_watermark/509601.jpeg?1605243653"}},{"id":"15931","name":"NPC 662 Casa SO0001GITF","description":"Lindo sobrado com 3 dormitórios sendo um deles com ampla suíte, projeto em estilo contemporâneo, 98m² privativos, possibilidade de alterações na distribuição dos dormitórios, amplo living com cozinha em conceito aberto, área de serviço, lavabo, garagem coberta com churrasqueira individual, espera para Split em todos ambientes, espera para água quente, piso porcelanato, escada em granito e corrimão em inox. Acabamento classe A . Localizado em condomínio fechado com apenas 5 residências, em rua calma e próximo a todos os recursos do bairro. Preço e disponibilidade do imóvel sujeitos a alteração sem aviso prévio.","min_price":325000.0,"min_area":98.0,"max_area":98.0,"min_bedrooms":3,"max_bedrooms":3,"min_suites":1,"max_suites":1,"min_parking":1,"max_parking":1,"min_bathrooms":4,"max_bathrooms":4,"price_per_private_square_meter":3316.0,"status":"Usado","features":[],"stock":1,"finality":"Residencial","updated_at":"14/12/2020 17:58:50","orulo_url":"https://www.orulo.com.br/buildings/15931","developer":{"id":"1170","name":"REMAX 520 Exclusividades"},"publisher":{"id":"1170","name":"REMAX 520 Exclusividades"},"address":{"street_type":"Rua","street":"Pandiá Calógeras","number":662,"area":"Niterói","city":"Canoas","latitude":-29.9477,"longitude":-51.1696,"state":"RS","zip_code":"92120-150"},"opportunity":{"broker":false,"client":false,"exchange_units":false},"default_image":{"id":"492944","description":"","200x140":"https://s3.amazonaws.com/uploaded.prod.corretordireto/images/properties/thumb/492944.jpeg?1604126936","520x280":"https://s3.amazonaws.com/uploaded.prod.corretordireto/images/properties/featured_modern_without_watermark/492944.jpeg?1604126936"}},{"id":"16463","name":"SJN 314 Casa CA0005GITF","description":"Residência com 03 dormitórios, localizada no bairro São José, em Canoas. Com arquitetura moderna, medindo 86 m² de área construída, erguida em um terreno com 160 m² (08 x 20), conta com 03 dormitórios, amplo living de estar e jantar, banheiro social e lavabo, cozinha, churrasqueira, ampla área de serviço, pátio e estacionamento coberto para 01 veículo e descoberto para mais 01. A orientação solar é Leste, incidindo, desta forma, o Sol da manhã. Situada no Residencial Parque Ozanan, no bairro São José, tem fácil acesso para as principais vias do bairro, o que promove rápido deslocamento para diversos municípios da Região Metropolitana, em especial para Porto Alegre, Cachoeirinha, Gravataí e litoral. Devido a intensa oferta de transporte público, o deslocamento para o Centro de Canoas também apresenta grande facilidade. Num raio de 800 metros encontra-se restaurantes, supermercados, gastronomia, farmácias, universidade, escolas, hospital e Upa, o que o torna muito atrativo. Consulte as opções de negociações para este imóvel! Entre em contato, agende uma visita e encante-se! Preço e disponibilidade do imóvel sujeitos a alteração sem aviso prévio.","min_price":275000.0,"min_area":86.0,"max_area":86.0,"min_bedrooms":3,"max_bedrooms":3,"min_suites":0,"max_suites":0,"min_parking":2,"max_parking":2,"min_bathrooms":2,"max_bathrooms":2,"price_per_private_square_meter":3198.0,"status":"Usado","features":[],"stock":1,"finality":"Residencial","updated_at":"14/12/2020 17:58:50","orulo_url":"https://www.orulo.com.br/buildings/16463","developer":{"id":"1170","name":"REMAX 520 Exclusividades"},"publisher":{"id":"1170","name":"REMAX 520 Exclusividades"},"address":{"street_type":"Rua","street":"Nápoles","number":314,"area":"São José","city":"Canoas","latitude":-29.8843,"longitude":-51.1422,"state":"RS","zip_code":"92425-636"},"opportunity":{"broker":false,"client":false,"exchange_units":false},"default_image":{"id":"507572","description":"","200x140":"https://s3.amazonaws.com/uploaded.prod.corretordireto/images/properties/thumb/507572.jpeg?1604812005","520x280":"https://s3.amazonaws.com/uploaded.prod.corretordireto/images/properties/featured_modern_without_watermark/507572.jpeg?1604812005"}},{"id":"17132","name":"SJRB 1800 SO0012GITF","description":"Prédio comercial e residencial com área construída assim distribuída: Pavimento Térreo: Loja comercial 01 38m² privativo + banheiro + espaço para estacionamento de 05 (cinco) carros. Loja comercial 02 35m² privativo + banheiro + espaço para estacionamento de 05 (cinco carros. Garagem fechada para 03 (três) carros. Segundo Pavimento (acesso escada garagem e escada externa): Apartamento com 240m² privativos, sendo 03 (três) dormitórios, 02 (dois) banheiros, ampla sala de estar, sala de jantar, escritório, cozinha e área de serviço, e com sacada em toda a lateral do prédio. Terceiro Pavimento: Sótão com 53,85m² privativos, churrasqueira e amplo espaço de lazer. Localizado no Bairro São José, com características residenciais e conservadoras. O Bairro proporcionas opções de mercados, farmácias, lojas, padarias, praças, parque, com fácil acesso e deslocamento de transporte público. Cliente estuda imóvel no negócio e está aberta a negociação. Preço e disponibilidade do imóvel sujeitos a alteração sem aviso prévio.","min_price":850000.0,"min_area":378.0,"max_area":378.0,"min_bedrooms":3,"max_bedrooms":3,"min_suites":0,"max_suites":0,"min_parking":8,"max_parking":8,"min_bathrooms":2,"max_bathrooms":2,"price_per_private_square_meter":2249.0,"status":"Usado","number_of_floors":2,"features":[],"stock":1,"finality":"Residencial","updated_at":"14/12/2020 17:58:50","orulo_url":"https://www.orulo.com.br/buildings/17132","developer":{"id":"1170","name":"REMAX 520 Exclusividades"},"publisher":{"id":"1170","name":"REMAX 520 Exclusividades"},"address":{"street_type":"Rua","street":"Ramiro Barcelos","number":1800,"area":"São José","city":"Canoas","latitude":-29.8829,"longitude":-51.1481,"state":"RS","zip_code":"92425-650"},"opportunity":{"broker":false,"client":false,"exchange_units":false},"default_image":{"id":"525083","description":"","200x140":"https://s3.amazonaws.com/uploaded.prod.corretordireto/images/properties/thumb/525083.jpeg?1607231429","520x280":"https://s3.amazonaws.com/uploaded.prod.corretordireto/images/properties/featured_modern_without_watermark/525083.jpeg?1607231429"}},{"id":"3482","name":"SLBC 1696 Loja TE0006REUP","description":"Excelente oportunidade em Canoas! Terreno plano, limpo, pronto para construir, perfeito para todo tipo de projeto industrial, com frente de 15m (alargando-se para 45m a partir do segundo terço) e área total de 8400m², na Estrada Berto Cirio. Em região com toda a infraestrutura: rede de saneamento, água, energia elétrica, rua asfaltada, com viabilidade de instalação de empreendimento de grande porte, de acordo com Plano Diretor Municipal. Com proximidade de importantes eixos viários de escoamento: Rodovia 386 (Tabaí-Canoas), Rodovia, Br 116, Av. Guilherme Schell e Rodovia do Parque, além de situar-se já no perímetro urbano da cidade de Canoas (Bairro São Luiz), a 10 min do Hipermercado Big Canoas. O terreno é vizinho a importantes complexos industriais, como, por exemplo, Moinhos Estrela, Midea Carrier e Pavioli. A 20 min de Porto Alegre (Bairro Navegantes). A região vizinha, Nova Santa Rita, é hoje florescente pólo para a implantação de loteamentos e condomínios, somando-se a isso o fácil acesso ao centro da cidade de Canoas e da capital, que conferem valorização crescente a este imóvel. Preço e disponibilidade do imóvel sujeitos a alteração sem aviso prévio.","min_price":2200000.0,"min_area":8400.0,"max_area":8400.0,"min_bedrooms":0,"max_bedrooms":0,"min_suites":0,"max_suites":0,"min_parking":0,"max_parking":0,"min_bathrooms":1,"max_bathrooms":1,"price_per_private_square_meter":262.0,"status":"Usado","features":[],"stock":1,"finality":"Comercial","updated_at":"14/12/2020 17:58:41","orulo_url":"https://www.orulo.com.br/buildings/3482","developer":{"id":"1075","name":"REMAX Rocket Exclusividades"},"publisher":{"id":"1075","name":"REMAX Rocket Exclusividades"},"address":{"street_type":"Rua","street":"Berto Cirio","number":1696,"area":"São Luis","city":"Canoas","latitude":-29.8844,"longitude":-51.2006,"state":"RS","zip_code":"92420-030"},"opportunity":{"broker":false,"client":false,"exchange_units":false},"default_image":{"id":"191593","description":"","200x140":"https://s3.amazonaws.com/uploaded.prod.corretordireto/images/properties/thumb/191593.jpeg?1558122435","520x280":"https://s3.amazonaws.com/uploaded.prod.corretordireto/images/properties/featured_modern_without_watermark/191593.jpeg?1558122435"}},{"id":"16853","name":"EVA 550 CA0134ALXV","description":"Este imóvel é para você que busca um lugar excelente para viver, onde encontrará segurança, tranquilidade e uma estrutura completa de lazer, recreação e convivência que o condomínio Privilege Exclusive Houses pode oferecer. Apresentamos a você um lindo, espaçoso e confortável sobrado de 160 m² de área privativa, que dispõe de 3 dormitórios, sendo uma suíte, 3 banheiros, cozinha, salas de estar e jantar integradas em conceito aberto, churrasqueira, sótão com lareira, área de serviço fechada e pátio privativo coberto por um belo pergolado de vidro. A casa ainda oferece acabamentos em gesso, porcelanato com laminado sobreposto no térreo e piso laminado no primeiro andar e sótão, sistema total de aquecimento de água a gás e duas vagas de estacionamento cobertas. E para completar este sonho de casa, ela ainda oferece mobília planejada completa em todos os ambientes, entregando a você uma perfeita experiência de conforto, prazer e sofisticação. O condomínio proporciona 2 Salões de festas, Brinquedoteca, Pracinha, Piscinas infantil e adulto, Academia, Sala de jogos, Quadra Poliesportiva, Espaços de convivência, Portaria presencial 24 horas e Vídeo vigilância. Tudo isso em uma localização privilegiada de requinte e glamour do bairro Marechal Rondon e nas imediações do ParkShopping Canoas. Venha encontrar neste lindo imóvel a felicidade para você e sua família. Preço e disponibilidade do imóvel sujeitos a alteração sem aviso prévio.","min_price":759990.0,"min_area":160.0,"max_area":160.0,"min_bedrooms":3,"max_bedrooms":3,"min_suites":1,"max_suites":1,"min_parking":2,"max_parking":2,"min_bathrooms":4,"max_bathrooms":4,"price_per_private_square_meter":4750.0,"status":"Usado","number_of_floors":3,"features":[],"stock":1,"finality":"Residencial","updated_at":"14/12/2020 17:58:26","orulo_url":"https://www.orulo.com.br/buildings/16853","developer":{"id":"1067","name":"REMAX LK Exclusividades"},"publisher":{"id":"1067","name":"REMAX LK Exclusividades"},"address":{"street_type":"Avenida","street":"Açucena","number":550,"area":"Estância Velha","city":"Canoas","latitude":-29.9231,"longitude":-51.1558,"state":"RS","zip_code":"92025-840"},"opportunity":{"broker":false,"client":false,"exchange_units":false},"default_image":{"id":"518751","description":"","200x140":"https://s3.amazonaws.com/uploaded.prod.corretordireto/images/properties/thumb/518751.jpeg?1606368290","520x280":"https://s3.amazonaws.com/uploaded.prod.corretordireto/images/properties/featured_modern_without_watermark/518751.jpeg?1606368290"}},{"id":"16197","name":"Quinta do Moinhos Casa CA0121ALXV","description":"Este imóvel é para você que busca um lugar excelente para viver, onde encontrará segurança, tranquilidade e uma estrutura completa de lazer, recreação e convivência que o condomínio Quinta do Moinhos pode oferecer. Apresentamos a você um lindo, espaçoso e confortável sobrado de 157 m² de área privativa, que dispõe de 3 dormitórios, sendo uma suíte, 3 banheiros, cozinha, salas de estar e jantar integradas em conceito aberto, churrasqueira, sótão com lareira, área de serviço fechada e pátio privativo coberto por um belo pergolado de vidro. A casa ainda oferece acabamentos em gesso, porcelanato, laminado, sistema total de aquecimento de água a gás e duas vagas de estacionamento cobertas. E para completar este sonho de casa, ela ainda oferece mobília planejada completa em todos os ambientes, entregando a você uma perfeita experiência de conforto, prazer e sofisticação. O condomínio proporciona 2 Salões de festas, Brinquedoteca, Pracinha, Piscinas infantil e adulto, Academia, Área fitness funcional, Sala de jogos, Quadra Poliesportiva, Campo de mini golfe, Espaços de convivência (Pergolados ao ar livre), Portaria presencial 24 horas e Vídeo vigilância. Tudo isso em uma localização privilegiada de requinte e glamour do bairro Marechal Rondon e nas imediações do ParkShopping Canoas. Venha encontrar neste lindo imóvel a felicidade para você e sua família. Preço e disponibilidade do imóvel sujeitos a alteração sem aviso prévio.","min_price":679990.0,"min_area":157.0,"max_area":157.0,"min_bedrooms":3,"max_bedrooms":3,"min_suites":1,"max_suites":1,"min_parking":2,"max_parking":2,"min_bathrooms":4,"max_bathrooms":4,"price_per_private_square_meter":4331.0,"status":"Usado","number_of_floors":3,"features":[],"stock":1,"finality":"Residencial","updated_at":"14/12/2020 17:58:25","orulo_url":"https://www.orulo.com.br/buildings/16197","developer":{"id":"1067","name":"REMAX LK Exclusividades"},"publisher":{"id":"1067","name":"REMAX LK Exclusividades"},"address":{"street_type":"Avenida","street":"Açucena","number":650,"area":"Estância Velha","city":"Canoas","latitude":-29.9213,"longitude":-51.1551,"state":"RS","zip_code":"92025-840"},"opportunity":{"broker":false,"client":false,"exchange_units":false},"default_image":{"id":"500083","description":"","200x140":"https://s3.amazonaws.com/uploaded.prod.corretordireto/images/properties/thumb/500083.jpeg?1604335788","520x280":"https://s3.amazonaws.com/uploaded.prod.corretordireto/images/properties/featured_modern_without_watermark/500083.jpeg?1604335788"}},{"id":"13706","name":"Maxplaza Sala AC0003DIGW","description":"Conjunto comercial Hub da Saude Maxplaza, complexo de hotel, clínicas, lojas, residências e laboratórios. Preço e disponibilidade do imóvel sujeitos a alteração sem aviso prévio.","min_price":2499000.0,"min_area":229.63,"max_area":229.63,"min_bedrooms":0,"max_bedrooms":0,"min_suites":0,"max_suites":0,"min_parking":0,"max_parking":0,"min_bathrooms":2,"max_bathrooms":2,"price_per_private_square_meter":10883.0,"status":"Usado","features":[],"stock":1,"finality":"Comercial","updated_at":"14/12/2020 17:58:14","orulo_url":"https://www.orulo.com.br/buildings/13706","developer":{"id":"1063","name":"REMAX Cultural Exclusividades"},"publisher":{"id":"1063","name":"REMAX Cultural Exclusividades"},"address":{"street_type":"Avenida","street":"Getúlio Vargas","number":4831,"area":"Centro","city":"Canoas","latitude":-29.9234,"longitude":-51.1776,"state":"RS","zip_code":"92010-011"},"opportunity":{"broker":false,"client":false,"exchange_units":false},"default_image":{"id":"437922","description":"","200x140":"https://s3.amazonaws.com/uploaded.prod.corretordireto/images/properties/thumb/437922.jpeg?1601010169","520x280":"https://s3.amazonaws.com/uploaded.prod.corretordireto/images/properties/featured_modern_without_watermark/437922.jpeg?1601010169"}},{"id":"13778","name":"Maxplaza Sala CJ0003DIGW","description":"Conjunto comercial Maxplaza Canoas Hub da Saúde. Preço e disponibilidade do imóvel sujeitos a alteração sem aviso prévio.","min_price":2500000.0,"min_area":235.18,"max_area":235.18,"min_bedrooms":0,"max_bedrooms":0,"min_suites":0,"max_suites":0,"min_parking":0,"max_parking":0,"min_bathrooms":2,"max_bathrooms":2,"price_per_private_square_meter":10630.0,"status":"Usado","features":[],"stock":1,"finality":"Comercial","updated_at":"14/12/2020 17:58:14","orulo_url":"https://www.orulo.com.br/buildings/13778","developer":{"id":"1063","name":"REMAX Cultural Exclusividades"},"publisher":{"id":"1063","name":"REMAX Cultural Exclusividades"},"address":{"street_type":"Avenida","street":"Getúlio Vargas","number":4831,"area":"Centro","city":"Canoas","latitude":-29.9234,"longitude":-51.1776,"state":"RS","zip_code":"92010-011"},"opportunity":{"broker":false,"client":false,"exchange_units":false},"default_image":{"id":"439783","description":"","200x140":"https://s3.amazonaws.com/uploaded.prod.corretordireto/images/properties/thumb/439783.jpeg?1601096965","520x280":"https://s3.amazonaws.com/uploaded.prod.corretordireto/images/properties/featured_modern_without_watermark/439783.jpeg?1601096965"}}],"total":70,"page":5,"total_pages":7}