{"buildings":[{"id":"1039","name":"Mirantes do Parque","description":"As melhores coisas da Vida estão em um único Lugar. Com uma localização privilegiada, este empreendimento está a minutos de várias opções de lazer e compras: Life Park, Parkshopping Canoas, Parque Getúlio Vargas, expansão do Parque Getúlio Vargas, entre outros. Studios, 2 e 3 dormitórios com Salão de Festas; Salão de Festas Infantil; Lounge Bar; Sports Bar; Enoteca; Jogos Teen; Discoteca; Espaço Kids; Home Office; Fitness; Artes Marciais; Pilates; Piscina Adulto com Spa, raia e prainha; Piscina Infantil; Quadra Poliesportiva; Fitness ao ar livre; Largo do sol; Praça pérgola; Redário; Lounge bar externo; Churrasqueira; Playground; Playground baby; Pet place e Bicicletários. Preço e disponibilidade do imóvel sujeitos a alteração sem aviso prévio.","min_price":339382.56,"min_area":47.76,"max_area":87.63,"min_bedrooms":1,"max_bedrooms":3,"min_suites":0,"max_suites":1,"min_parking":1,"max_parking":2,"min_bathrooms":1,"max_bathrooms":2,"price_per_private_square_meter":7106.0,"status":"Em construção","apts_per_floor":13,"number_of_floors":13,"features":["Bicicletário","Brinquedoteca","Business place","Churrasqueira condominial","Circuito de TV","Copa","Deck molhado","Elevador social","Espaço gourmet","Fitness","Fitness ao ar livre","Gerador","Jardim","Lounge","Pet place","Piscina adulto","Piscina infantil","Playground","Portaria","Porte cochère","Praça","Quadra poliesportiva","Sala de jogos","Salão de festas","Solarium","Zelador"],"stock":283,"finality":"Residencial","updated_at":"04/01/2021 16:12:42","orulo_url":"https://www.orulo.com.br/buildings/1039","developer":{"id":"162","name":"Nex Group"},"publisher":{"id":"162","name":"Nex Group"},"address":{"street_type":"Avenida","street":"Farroupilha","number":5234,"area":"Marechal Rondon","city":"Canoas","latitude":-29.9111,"longitude":-51.1658,"state":"RS","zip_code":"92020-476"},"opportunity":{"broker":false,"client":false,"exchange_units":false},"default_image":{"id":"82029","description":"Fachada","200x140":"https://s3.amazonaws.com/uploaded.prod.corretordireto/images/properties/thumb/82029.jpg?1532464657","520x280":"https://s3.amazonaws.com/uploaded.prod.corretordireto/images/properties/featured_modern_without_watermark/82029.jpg?1532464657"}},{"id":"477","name":"Life Park","description":"Um lugar surpreendente, que apresenta um conceito inédito de qualidade de vida. Natureza, conveniência e diversão, juntos, na região que mais se desenvolve e se valoriza em Canoas. O resultado dessa combinação é um lugar diferente de tudo que você está acostumado, perfeito para morar, para viver e para investir seu futuro. Preço e disponibilidade do imóvel sujeitos a alteração sem aviso prévio.","min_price":367357.21,"min_area":60.61,"max_area":76.34,"min_bedrooms":1,"max_bedrooms":3,"min_suites":1,"max_suites":1,"min_parking":1,"max_parking":2,"min_bathrooms":2,"max_bathrooms":2,"price_per_private_square_meter":6061.0,"status":"Pronto novo","apts_per_floor":12,"number_of_floors":13,"features":["Bicicletário","Brinquedoteca","Churrasqueira condominial","Circuito de TV","Depósito","Elevador social","Espaço gourmet","Fitness","Fitness ao ar livre","Gerador","Gás central condominial","Lounge","Pet place","Piscina adulto","Piscina infantil","Playground","Portaria 24 horas","Pub","Quadra poliesportiva","Salão de festas","Terraço coletivo","Zelador"],"stock":89,"finality":"Residencial","updated_at":"04/01/2021 16:12:22","orulo_url":"https://www.orulo.com.br/buildings/477","developer":{"id":"162","name":"Nex Group"},"publisher":{"id":"162","name":"Nex Group"},"address":{"street_type":"Avenida","street":"Farroupilha","number":5508,"area":"Marechal Rondon","city":"Canoas","latitude":-29.9089,"longitude":-51.1655,"state":"RS","zip_code":"92020-476"},"opportunity":{"broker":false,"client":false,"exchange_units":false},"default_image":{"id":"365334","description":"Fachada","200x140":"https://s3.amazonaws.com/uploaded.prod.corretordireto/images/properties/thumb/365334.jpg?1595434321","520x280":"https://s3.amazonaws.com/uploaded.prod.corretordireto/images/properties/featured_modern_without_watermark/365334.jpg?1595434321"}},{"id":"17654","name":"Residencial Rudá Apto AP0008GITF","description":"Com agradável e ensolarado posicionamento solar, o condomínio Residencial Rudá oferece a oportunidade de morar em um apartamento com 02 dormitórios, sala estar/jantar, cozinha separada, área de serviço, banheiro e vaga própria para automóvel. O condomínio ainda conta com playground e área gourmet com churrasqueira e amplo espaço para festas. Localizado na rua Henrique Stefani, 860, fica a 5 minutos do ParkShopping Canoas e próximo a todos os instrumentos de urbanidade social tais como, escolas, restaurantes, supermercados, farmácia, centro comercial, transporte coletivo, entre outros. Aceita Financiamento e FGTS! Não perca essa oportunidade! Preço e disponibilidade do imóvel sujeitos a alteração sem aviso prévio.","min_price":119900.0,"min_area":44.0,"max_area":44.0,"min_bedrooms":2,"max_bedrooms":2,"min_suites":0,"max_suites":0,"min_parking":1,"max_parking":1,"min_bathrooms":1,"max_bathrooms":1,"price_per_private_square_meter":2725.0,"status":"Usado","number_of_floors":4,"features":[],"stock":1,"finality":"Residencial","updated_at":"28/12/2020 02:00:50","orulo_url":"https://www.orulo.com.br/buildings/17654","developer":{"id":"1170","name":"REMAX 520 Exclusividades"},"publisher":{"id":"1170","name":"REMAX 520 Exclusividades"},"address":{"street_type":"Rua","street":"Henrique Stefani","number":860,"area":"Igara","city":"Canoas","latitude":-29.9027,"longitude":-51.1502,"state":"RS","zip_code":"92412-216"},"opportunity":{"broker":false,"client":false,"exchange_units":false},"default_image":{"id":"540816","description":"","200x140":"https://s3.amazonaws.com/uploaded.prod.corretordireto/images/properties/thumb/540816.jpeg?1608958853","520x280":"https://s3.amazonaws.com/uploaded.prod.corretordireto/images/properties/featured_modern_without_watermark/540816.jpeg?1608958853"}},{"id":"16462","name":"Porto Ametista Apto AP0003GITF","description":"Você vai se encantar com este lindo apartamento de 02 dormitórios totalmente mobiliado e muito bem decorado, localizado no Condomínio Porto Ametista, bairro São José! O apartamento conta com living de estar/jantar com textura em cimento queimado na parede, cozinha estilo americana, banheiro com box em vidro, vaga de garagem fixa. Piso Vinílico em todo o apartamento. O Condomínio conta com ótima infraestrutura de lazer e segurança: Amplo salão de festas, Piscina adulto, Piscina Infantil, Quiosques com churrasqueira, Espaço Kids e Portaria 24h. Fica no apartamento todos os móveis, planejados e eletrodomésticos. Próximo à Praça com área verde, 7 minutos do ParkShopping Canoas e do Parque Getúlio Vargas, universidade ULBRA, mercados e fácil acesso a saída da cidade, localizado a 12 minutos do aeroporto. Aceita Financiamento e FGTS! Visite e encante-se! Preço e disponibilidade do imóvel sujeitos a alteração sem aviso prévio.","min_price":174900.0,"min_area":41.0,"max_area":41.0,"min_bedrooms":2,"max_bedrooms":2,"min_suites":0,"max_suites":0,"min_parking":1,"max_parking":1,"min_bathrooms":1,"max_bathrooms":1,"price_per_private_square_meter":4266.0,"status":"Usado","number_of_floors":2,"features":[],"stock":1,"finality":"Residencial","updated_at":"26/12/2020 05:22:48","orulo_url":"https://www.orulo.com.br/buildings/16462","developer":{"id":"1170","name":"REMAX 520 Exclusividades"},"publisher":{"id":"1170","name":"REMAX 520 Exclusividades"},"address":{"street_type":"Rua","street":"Guarujá","number":400,"area":"São José","city":"Canoas","latitude":-29.8808,"longitude":-51.1761,"state":"RS","zip_code":"92420-230"},"opportunity":{"broker":false,"client":false,"exchange_units":false},"default_image":{"id":"507553","description":"","200x140":"https://s3.amazonaws.com/uploaded.prod.corretordireto/images/properties/thumb/507553.jpeg?1604811688","520x280":"https://s3.amazonaws.com/uploaded.prod.corretordireto/images/properties/featured_modern_without_watermark/507553.jpeg?1604811688"}},{"id":"17547","name":"MDDG 273 Casa SO0014GITF","description":"Sobrado / casa, com quatro dormitórios / quartos, sendo uma suíte com hidro e sacada, localizado no bairro Mont Serrat, em Canoas. Medindo 211 m², este sobrado possui, além de 04 quartos / dormitórios, um banheiro social, living dividido em dois ambientes, cozinha, área de serviço, lavabo, churrasqueira, pátio e garagem para dois carros e possibilidade de estacionar mais dois na entrada. O imóvel será entregue com piso porcelanato na parte térrea e laminado na parte superior. As aberturas serão automatizadas. Com finíssimo padrão de acabamento e construtivo, pois está localizado no coração bairro Mont Serrat, a região que possui o mais elevado valor por metro quadrado e desenvolvimento urbanístico do município. Nas suas proximidade encontramos comércio variado, com especial destaque para área da gastronomia, com diversos restaurantes, pubs e pizzarias, além dos tradicionais lancherias de Xis de Canoas. Além disso, o bairro destaca-se por possuir uma gama variada de outros serviços, como academias de ginástica, salões de estéticas, barbearias, parques públicos, escolas particulares, creches, supermercados, hipermercado, shopping, etc. o bairro também apresenta facilidade de deslocamento para o centro de Canoas e outros bairros, além de fácil deslocamento para outras cidades, em especial para Cachoeirinha, Gravataí e zona norte de Porto Alegre. A previsão de entregada da obra será em Maio de 2021, já com toda ela averbada e pronta para financiamento na rede bancária. Preço e disponibilidade do imóvel sujeitos a alteração sem aviso prévio.","min_price":950000.0,"min_area":211.0,"max_area":211.0,"min_bedrooms":4,"max_bedrooms":4,"min_suites":1,"max_suites":1,"min_parking":4,"max_parking":4,"min_bathrooms":3,"max_bathrooms":3,"price_per_private_square_meter":4502.0,"status":"Usado","features":[],"stock":1,"finality":"Residencial","updated_at":"21/12/2020 05:22:28","orulo_url":"https://www.orulo.com.br/buildings/17547","developer":{"id":"1170","name":"REMAX 520 Exclusividades"},"publisher":{"id":"1170","name":"REMAX 520 Exclusividades"},"address":{"street_type":"Rua","street":"Doutor David Giacomini","number":273,"area":"Estância Velha","city":"Canoas","latitude":-29.913,"longitude":-51.1509,"state":"RS","zip_code":"92031-175"},"opportunity":{"broker":false,"client":false,"exchange_units":false},"default_image":{"id":"537662","description":"","200x140":"https://s3.amazonaws.com/uploaded.prod.corretordireto/images/properties/thumb/537662.jpeg?1608440990","520x280":"https://s3.amazonaws.com/uploaded.prod.corretordireto/images/properties/featured_modern_without_watermark/537662.jpeg?1608440990"}},{"id":"17548","name":"MDIM 249 Casa SO0013GITF","description":"Casa tipo sobrado, com 03 dormitórios / quartos, localizado no bairro Mont Serrat, em Canoas. Sobrado medindo 116 m² de área construída, com 03 dormitórios, sendo 01 suíte com sacada. Possui, também, áreas de salas de estar, jantar e cozinha integradas, o que proporciona uma maior amplitude do espaço, facilitando a decoração. Além disso, o imóvel está equipado churrasqueira, lavabo, lavanderia, espera para gás e estacionamento para um veículo. Na parte térrea há piso em porcelanato e na superior o piso é laminado. A escada possui piso em mármore e corrimão em aço escovado. Juntamente com estas qualidades, o sobrado está localizado no bairro Mont Serrat, na área de maior valorização por metro quadrado de Canoas. Próximo de escolas, restaurantes, shopping center, hipermercado, etc. Apresenta, também, facilidade de deslocamento para o Centro da Canoas, além de todas as demais cidades da região metropolitana de Porto Alegre. Pronto para financiamento bancário, inclusive com utilização do FGTS. Preço e disponibilidade do imóvel sujeitos a alteração sem aviso prévio.","min_price":530000.0,"min_area":116.0,"max_area":116.0,"min_bedrooms":3,"max_bedrooms":3,"min_suites":1,"max_suites":1,"min_parking":1,"max_parking":1,"min_bathrooms":2,"max_bathrooms":2,"price_per_private_square_meter":4569.0,"status":"Usado","features":[],"stock":1,"finality":"Residencial","updated_at":"21/12/2020 05:22:28","orulo_url":"https://www.orulo.com.br/buildings/17548","developer":{"id":"1170","name":"REMAX 520 Exclusividades"},"publisher":{"id":"1170","name":"REMAX 520 Exclusividades"},"address":{"street_type":"Rua","street":"Doutor Iran Maciel","number":249,"area":"Estância Velha","city":"Canoas","latitude":-29.9124,"longitude":-51.1513,"state":"RS","zip_code":"92031-205"},"opportunity":{"broker":false,"client":false,"exchange_units":false},"default_image":{"id":"537664","description":"","200x140":"https://s3.amazonaws.com/uploaded.prod.corretordireto/images/properties/thumb/537664.jpeg?1608441020","520x280":"https://s3.amazonaws.com/uploaded.prod.corretordireto/images/properties/featured_modern_without_watermark/537664.jpeg?1608441020"}},{"id":"17546","name":"IRN 665 Casa SO0015GITF","description":"Com 242 m², este belo sobrado conta com 4 dormitórios, sendo uma suíte máster com closet, banheira de hidromassagem e sacada., amplo living para 2 ou mais ambientes, mas com especial destaque para as espaçosas salas de estar e jantar. A cozinha, ampla e funcional fica mobiliada, com seus balcões e armários, inclusive na despensa anexa a ela. Juntamente ao living encontramos um escritório, que poderá ser utilizado opcionalmente, também, como outro quarto, devido ao seu bom espaço de aproximadamente 12m². São 4 banheiros distribuídos pela residência. No imóvel, há também um charmoso sótão, que pode ter um excelente aproveitamento para sala de jogos ou sala cinema. Sobre o acabamento... Rebaixamentos em gesso e sancas nos tetos da sala de estar, jantar e da suíte, sistema de aquecimento de água a gás, piso em porcelanato de alta qualidade, as aberturas são em madeira grápia. Nos fundos localiza-se a edícula decorada e estilizada como um galpão crioulo, espaço próprio para reunir toda a família seja para assar um bom churrasco ou sentar-se próximo do fogão a lenha nos dias frios do inverno. No grande quintal há uma piscina e os espaços de estacionamentos, que comporta mais de 8 vagas. O bairro Igara também oferece comércio variado, contando com diversos supermercados, restaurantes, pizzarias, farmácias, rede bancária e lotéricas, UPA 24 horas, escolas, Universidade, além de rápido deslocamento para os dois shoppings de Canoas. Próximo de algumas das principais vias do município, como as Avenida Boqueirão, Rodovia Getúlio Vargas e Rua Liberdade, o que proporciona facilidade de acesso e deslocamento para diversos lugares, como o Centro de Canoas, Porto Alegre e Vale dos Sinos. Preço e disponibilidade do imóvel sujeitos a alteração sem aviso prévio.","min_price":1199000.0,"min_area":242.0,"max_area":242.0,"min_bedrooms":4,"max_bedrooms":4,"min_suites":1,"max_suites":1,"min_parking":8,"max_parking":8,"min_bathrooms":4,"max_bathrooms":4,"price_per_private_square_meter":4955.0,"status":"Usado","features":[],"stock":1,"finality":"Residencial","updated_at":"21/12/2020 02:00:56","orulo_url":"https://www.orulo.com.br/buildings/17546","developer":{"id":"1170","name":"REMAX 520 Exclusividades"},"publisher":{"id":"1170","name":"REMAX 520 Exclusividades"},"address":{"street_type":"Rua","street":"Rio Negro","number":665,"area":"Igara","city":"Canoas","latitude":-29.9036,"longitude":-51.1678,"state":"RS","zip_code":"92410-460"},"opportunity":{"broker":false,"client":false,"exchange_units":false},"default_image":{"id":"537635","description":"","200x140":"https://s3.amazonaws.com/uploaded.prod.corretordireto/images/properties/thumb/537635.jpeg?1608440468","520x280":"https://s3.amazonaws.com/uploaded.prod.corretordireto/images/properties/featured_modern_without_watermark/537635.jpeg?1608440468"}},{"id":"17131","name":"Alto da Baviera Apto AP0005GITF","description":"Com agradável e ensolarado posicionamento, esse apartamento oferece ao comprador a oportunidade de morar com segurança, próximo a todos os instrumentos de urbanidade social tais como, Universidade (ULBRA), restaurantes e lancherias, agências bancárias, farmácias, hospital, transporte coletivo, entre outros. Permanecerão os guarda-roupas e o chuveiro elétrico. Aceita Financiamento bancário e FGTS. Preço e disponibilidade do imóvel sujeitos a alteração sem aviso prévio.","min_price":130000.0,"min_area":41.19,"max_area":41.19,"min_bedrooms":2,"max_bedrooms":2,"min_suites":0,"max_suites":0,"min_parking":1,"max_parking":1,"min_bathrooms":1,"max_bathrooms":1,"price_per_private_square_meter":3156.0,"status":"Usado","number_of_floors":4,"features":[],"stock":1,"finality":"Residencial","updated_at":"19/12/2020 05:22:55","orulo_url":"https://www.orulo.com.br/buildings/17131","developer":{"id":"1170","name":"REMAX 520 Exclusividades"},"publisher":{"id":"1170","name":"REMAX 520 Exclusividades"},"address":{"street_type":"Rua","street":"Lopes Trovão","number":45,"area":"São Luis","city":"Canoas","latitude":-29.8858,"longitude":-51.1685,"state":"RS","zip_code":"92420-270"},"opportunity":{"broker":false,"client":false,"exchange_units":false},"default_image":{"id":"525066","description":"","200x140":"https://s3.amazonaws.com/uploaded.prod.corretordireto/images/properties/thumb/525066.jpeg?1607231115","520x280":"https://s3.amazonaws.com/uploaded.prod.corretordireto/images/properties/featured_modern_without_watermark/525066.jpeg?1607231115"}},{"id":"12316","name":"Nova Primavera II","description":"O empreendimento Nova Primavera II conta com áreas de lazer, segurança e vagas de estacionamento, além de fácil acesso à BR 116 e à Rodovia do Parque. A 7 min de Porto Alegre e 10 min do Centro de Canoas. Preço e disponibilidade do imóvel sujeitos a alteração sem aviso prévio.","min_price":128000.0,"min_area":40.19,"max_area":40.19,"min_bedrooms":1,"max_bedrooms":2,"min_suites":0,"max_suites":0,"min_parking":1,"max_parking":1,"min_bathrooms":1,"max_bathrooms":1,"price_per_private_square_meter":3185.0,"status":"Em construção","apts_per_floor":4,"number_of_floors":5,"features":["Bicicletário","Churrasqueira condominial","Elevador de serviço","Fitness ao ar livre","Playground","Portaria","Salão de festas","Segurança"],"stock":83,"finality":"Residencial","updated_at":"18/12/2020 11:05:07","orulo_url":"https://www.orulo.com.br/buildings/12316","developer":{"id":"184","name":"Tenda RS"},"publisher":{"id":"184","name":"Tenda RS"},"address":{"street_type":"Rua","street":"Machadinho","number":1704,"area":"Rio Branco","city":"Canoas","latitude":-29.9563,"longitude":-51.2032,"state":"RS","zip_code":"92200-440"},"opportunity":{"broker":false,"client":false,"exchange_units":false},"default_image":{"id":"407032","description":"Fachada","200x140":"https://s3.amazonaws.com/uploaded.prod.corretordireto/images/properties/thumb/407032.jpg?1598914324","520x280":"https://s3.amazonaws.com/uploaded.prod.corretordireto/images/properties/featured_modern_without_watermark/407032.jpg?1598914324"}},{"id":"12262","name":"Nova Primavera I","description":"Localização privilegiada, a 2,6 km da Estação Niterói, fácil acesso a rodovia do Parque e a para Br 116. Próximo ao mercado Formenton UniSuper. Preço e disponibilidade do imóvel sujeitos a alteração sem aviso prévio.","min_price":128000.0,"min_area":41.19,"max_area":41.19,"min_bedrooms":2,"max_bedrooms":2,"min_suites":0,"max_suites":0,"min_parking":0,"max_parking":0,"min_bathrooms":1,"max_bathrooms":1,"price_per_private_square_meter":3108.0,"status":"Pronto novo","apts_per_floor":4,"number_of_floors":5,"features":["Bicicletário","Churrasqueira condominial","Elevador de serviço","Fitness ao ar livre","Playground","Portaria","Salão de festas","Segurança"],"stock":1,"finality":"Residencial","updated_at":"18/12/2020 11:04:59","orulo_url":"https://www.orulo.com.br/buildings/12262","developer":{"id":"184","name":"Tenda RS"},"publisher":{"id":"184","name":"Tenda RS"},"address":{"street_type":"Rua","street":"Machadinho","number":1580,"area":"Rio Branco","city":"Canoas","latitude":-29.9573,"longitude":-51.2014,"state":"RS","zip_code":"92200-440"},"opportunity":{"broker":false,"client":false,"exchange_units":false},"default_image":{"id":"406618","description":"Fachada","200x140":"https://s3.amazonaws.com/uploaded.prod.corretordireto/images/properties/thumb/406618.png?1598726675","520x280":"https://s3.amazonaws.com/uploaded.prod.corretordireto/images/properties/featured_modern_without_watermark/406618.png?1598726675"}}],"total":70,"page":3,"total_pages":7}