{"buildings":[{"id":"17086","name":"MVV 181 Casa","description":"Casa de 1 dormitório com 115,10m² e área total de 500m². Espaço para 4 vagas de garagem, banheiro amplo, cozinha, área de serviço, sala de estar/jantar, salão com churrasqueira e banheiro social. Amplo pátio com piscina entre a casa e o salão e nos fundos amplo pátio com grama. Rua calma próximo à supermercados, farmácias e outros comércios. Casa com projeto pronto para mais 2 dormitórios. Preço e disponibilidade do imóvel sujeitos a alteração sem aviso prévio.","min_price":350000.0,"min_area":115.1,"max_area":115.1,"min_bedrooms":1,"max_bedrooms":1,"min_suites":0,"max_suites":0,"min_parking":4,"max_parking":4,"min_bathrooms":2,"max_bathrooms":2,"price_per_private_square_meter":3041.0,"status":"Usado","features":[],"stock":1,"finality":"Residencial","updated_at":"03/12/2020 16:04:15","orulo_url":"https://www.orulo.com.br/buildings/17086","developer":{"id":"700","name":"Nex Group Dações"},"publisher":{"id":"700","name":"Nex Group Dações"},"address":{"street_type":"Rua","street":"Viamão","number":181,"area":"Mathias Velho","city":"Canoas","latitude":-29.9044,"longitude":-51.2131,"state":"RS","zip_code":"92330-490"},"opportunity":{"broker":false,"client":false,"exchange_units":true},"default_image":{"id":"523717","description":"Fachada","200x140":"https://s3.amazonaws.com/uploaded.prod.corretordireto/images/properties/thumb/523717.jpeg?1607041790","520x280":"https://s3.amazonaws.com/uploaded.prod.corretordireto/images/properties/featured_modern_without_watermark/523717.jpeg?1607041790"}},{"id":"2054","name":"Parque Canoas Allegro Apto 707","description":"Apartamento com 43,38m² de 2 dormitórios PNE. Condomínio com salão de festas com churrasqueira, quiosque com churrasqueira, playground, sala de jogos, brinquedoteca. Preço e disponibilidade do imóvel sujeitos a alteração sem aviso prévio.","min_price":165000.0,"min_area":43.38,"max_area":43.38,"min_bedrooms":2,"max_bedrooms":2,"min_suites":0,"max_suites":0,"min_parking":1,"max_parking":1,"min_bathrooms":1,"max_bathrooms":1,"price_per_private_square_meter":3804.0,"status":"Usado","features":["Brinquedoteca","Churrasqueira condominial","Elevador social","Playground","Portaria","Sala de jogos","Salão de festas"],"stock":1,"finality":"Residencial","updated_at":"03/12/2020 07:55:20","orulo_url":"https://www.orulo.com.br/buildings/2054","developer":{"id":"529","name":"Cyrela Goldsztein Dações"},"publisher":{"id":"529","name":"Cyrela Goldsztein Dações"},"address":{"street_type":"Rua","street":"Antônio Lourenço Rosa","number":180,"area":"Mato Grande","city":"Canoas","latitude":-29.9272,"longitude":-51.1916,"state":"RS","zip_code":"92320-050"},"opportunity":{"broker":false,"client":false,"exchange_units":true},"default_image":{"id":"125767","description":"Fachada","200x140":"https://s3.amazonaws.com/uploaded.prod.corretordireto/images/properties/thumb/125767.jpg?1532235290","520x280":"https://s3.amazonaws.com/uploaded.prod.corretordireto/images/properties/featured_modern_without_watermark/125767.jpg?1532235290"}},{"id":"2962","name":"NSDGFA 50 Casa 06","description":"Casa em condomínio de 89,77m² com 3 dormitórios, sendo 1 suíte, lavabo, com atico e porão, piso em porcelanato, churrasqueira, lareira, garagem coberta. Ficam os moveis fixos da cozinha e banheiro. Preço e disponibilidade do imóvel sujeitos a alteração sem aviso prévio.","min_price":350000.0,"min_area":89.77,"max_area":89.77,"min_bedrooms":3,"max_bedrooms":3,"min_suites":0,"max_suites":0,"min_parking":0,"max_parking":0,"min_bathrooms":2,"max_bathrooms":2,"price_per_private_square_meter":3899.0,"status":"Usado","features":[],"stock":1,"finality":"Residencial","updated_at":"24/11/2020 11:03:53","orulo_url":"https://www.orulo.com.br/buildings/2962","developer":{"id":"700","name":"Nex Group Dações"},"publisher":{"id":"700","name":"Nex Group Dações"},"address":{"street_type":"Rua","street":"Fernando Abbot","number":50,"area":"Nossa Senhora das Graças","city":"Canoas","latitude":-29.9269,"longitude":-51.1739,"state":"RS","zip_code":"92025-330"},"opportunity":{"broker":true,"client":false,"exchange_units":true},"default_image":{"id":"185322","description":"Fachada","200x140":"https://s3.amazonaws.com/uploaded.prod.corretordireto/images/properties/thumb/185322.jpg?1557188738","520x280":"https://s3.amazonaws.com/uploaded.prod.corretordireto/images/properties/featured_modern_without_watermark/185322.jpg?1557188738"}},{"id":"2023","name":"MRSP 495 Apto 505","description":"Cobertura em excelente localização, junto ao Parque Capão do Corvo e ao Park Shopping Canoas. 3 dormitórios, 1 suíte, living amplo, cozinha e dependencia de empregada, salão com churrasqueira e terraço. Prédio de esquina com elevador. Preço e disponibilidade do imóvel sujeitos a alteração sem aviso prévio.","min_price":630000.0,"min_area":161.0,"max_area":161.0,"min_bedrooms":3,"max_bedrooms":3,"min_suites":1,"max_suites":1,"min_parking":2,"max_parking":2,"min_bathrooms":3,"max_bathrooms":3,"price_per_private_square_meter":3913.0,"status":"Usado","features":[],"stock":1,"finality":"Residencial","updated_at":"24/11/2020 11:03:38","orulo_url":"https://www.orulo.com.br/buildings/2023","developer":{"id":"700","name":"Nex Group Dações"},"publisher":{"id":"700","name":"Nex Group Dações"},"address":{"street_type":"Rua","street":"São Pedro","number":495,"area":"Marechal Rondon ","city":"Canoas","latitude":-29.9193,"longitude":-51.1694,"state":"RS","zip_code":"92020-480"},"opportunity":{"broker":true,"client":false,"exchange_units":true},"default_image":{"id":"125059","description":"Fachada","200x140":"https://s3.amazonaws.com/uploaded.prod.corretordireto/images/properties/thumb/125059.jpg?1532228430","520x280":"https://s3.amazonaws.com/uploaded.prod.corretordireto/images/properties/featured_modern_without_watermark/125059.jpg?1532228430"}},{"id":"3173","name":"Igara Residences II Casa 62","description":"Sobrado de 2 dormitórios com 65,88m². 1 vaga de garagem, 2 banheiros, cozinha, área de serviço, sala de estar/jantar, pátio com churrasqueira, banheiro social. Condomínio fechado com ampla infraestrutura, portaria 24hrs e salão de festas. Localização próximo a comércio e fácil acesso à BR. Preço e disponibilidade do imóvel sujeitos a alteração sem aviso prévio.","min_price":219000.0,"min_area":65.88,"max_area":65.88,"min_bedrooms":2,"max_bedrooms":2,"min_suites":0,"max_suites":0,"min_parking":1,"max_parking":1,"min_bathrooms":2,"max_bathrooms":2,"price_per_private_square_meter":3324.0,"status":"Usado","features":[],"stock":1,"finality":"Residencial","updated_at":"24/11/2020 11:03:22","orulo_url":"https://www.orulo.com.br/buildings/3173","developer":{"id":"700","name":"Nex Group Dações"},"publisher":{"id":"700","name":"Nex Group Dações"},"address":{"street_type":"Rua","street":"Henrique Stefani","number":801,"area":"Igara","city":"Canoas","latitude":-29.9031,"longitude":-51.1511,"state":"RS","zip_code":"92412-216"},"opportunity":{"broker":false,"client":false,"exchange_units":true},"default_image":{"id":"183662","description":"Facahda condominio","200x140":"https://s3.amazonaws.com/uploaded.prod.corretordireto/images/properties/thumb/183662.jpg?1557207280","520x280":"https://s3.amazonaws.com/uploaded.prod.corretordireto/images/properties/featured_modern_without_watermark/183662.jpg?1557207280"}},{"id":"15794","name":"Edifício Damaso Rocha Apto 93","description":"Apartamento de 3 dormitórios com 95,77m². Prédio no centro de Canoas, boa localização. Lojas em baixo. Elevador, 9º andar, ampla sala com janela grande, cozinha e área de serviço individual com lavabo, 1 banheiro completo grande, piso de parquet. Vista panoramica em todas as janelas. Preço e disponibilidade do imóvel sujeitos a alteração sem aviso prévio.","min_price":190000.0,"min_area":95.77,"max_area":95.77,"min_bedrooms":3,"max_bedrooms":3,"min_suites":0,"max_suites":0,"min_parking":0,"max_parking":0,"min_bathrooms":2,"max_bathrooms":2,"price_per_private_square_meter":1984.0,"status":"Usado","features":[],"stock":1,"finality":"Residencial","updated_at":"24/11/2020 11:02:19","orulo_url":"https://www.orulo.com.br/buildings/15794","developer":{"id":"700","name":"Nex Group Dações"},"publisher":{"id":"700","name":"Nex Group Dações"},"address":{"street_type":"Rua","street":"Fioravante Milanez","number":85,"area":"Centro","city":"Canoas","latitude":-29.9203,"longitude":-51.1804,"state":"RS","zip_code":"92010-240"},"opportunity":{"broker":true,"client":false,"exchange_units":true},"default_image":{"id":"489114","description":"Fachada","200x140":"https://s3.amazonaws.com/uploaded.prod.corretordireto/images/properties/thumb/489114.jpeg?1603923906","520x280":"https://s3.amazonaws.com/uploaded.prod.corretordireto/images/properties/featured_modern_without_watermark/489114.jpeg?1603923906"}},{"id":"2009","name":"CDM 644 Apto 901","description":"Cobertura com 393m² de área privativa, sendo 3 dormitórios, 1 suíte, amplo living, cozinha, espaço com churrasqueira e terraço, além de 4 vagas de garagem. Prédio com portaria e infraestrutura. Preço e disponibilidade do imóvel sujeitos a alteração sem aviso prévio.","min_price":1200000.0,"min_area":393.0,"max_area":393.0,"min_bedrooms":3,"max_bedrooms":3,"min_suites":1,"max_suites":1,"min_parking":4,"max_parking":4,"min_bathrooms":2,"max_bathrooms":2,"price_per_private_square_meter":3053.0,"status":"Usado","features":["Elevador de serviço","Piscina adulto","Piscina infantil","Portaria","Praça"],"stock":1,"finality":"Residencial","updated_at":"24/11/2020 11:01:46","orulo_url":"https://www.orulo.com.br/buildings/2009","developer":{"id":"700","name":"Nex Group Dações"},"publisher":{"id":"700","name":"Nex Group Dações"},"address":{"street_type":"Rua","street":"Domingos Martins","number":644,"area":"Centro","city":"Canoas","latitude":-29.9149,"longitude":-51.1843,"state":"RS","zip_code":"92310-190"},"opportunity":{"broker":true,"client":false,"exchange_units":true},"default_image":{"id":"124925","description":"Fachada","200x140":"https://s3.amazonaws.com/uploaded.prod.corretordireto/images/properties/thumb/124925.jpg?1532227110","520x280":"https://s3.amazonaws.com/uploaded.prod.corretordireto/images/properties/featured_modern_without_watermark/124925.jpg?1532227110"}},{"id":"16413","name":"Parque Porto Piratini","description":"Uma excelente localização de Canoas que oferece completa infraestrutura comercial, além de muita área verde no entorno. Preço e disponibilidade do imóvel sujeitos a alteração sem aviso prévio.","min_price":156900.0,"min_area":40.82,"max_area":40.82,"min_bedrooms":2,"max_bedrooms":2,"min_suites":0,"max_suites":0,"min_parking":1,"max_parking":1,"min_bathrooms":1,"max_bathrooms":1,"price_per_private_square_meter":3844.0,"status":"Em construção","apts_per_floor":4,"number_of_floors":5,"features":["Bicicletário","Espaço gourmet","Playground","Salão de festas"],"stock":61,"finality":"Residencial","updated_at":"09/11/2020 10:59:44","orulo_url":"https://www.orulo.com.br/buildings/16413","developer":{"id":"1054","name":"MRV RS"},"publisher":{"id":"1054","name":"MRV RS"},"address":{"street_type":"Rua","street":"Arpoador","number":425,"area":"Estância Velha","city":"Canoas","latitude":-29.9076,"longitude":-51.142,"state":"RS","zip_code":"92032-030"},"opportunity":{"broker":false,"client":false,"exchange_units":false},"default_image":{"id":"508064","description":"Fachada","200x140":"https://s3.amazonaws.com/uploaded.prod.corretordireto/images/properties/thumb/508064.png?1604930393","520x280":"https://s3.amazonaws.com/uploaded.prod.corretordireto/images/properties/featured_modern_without_watermark/508064.png?1604930393"}},{"id":"12318","name":"Residencial Porto San Diego","description":"Condomínio fechado com apartamentos de 2 dormitórios no Igara, todos com vaga de garagem. Conforto, tranquilidade, segurança e área de lazer com piscina para os momentos de diversão de sua família. Preço e disponibilidade do imóvel sujeitos a alteração sem aviso prévio.","min_price":168900.0,"min_area":40.82,"max_area":40.82,"min_bedrooms":1,"max_bedrooms":2,"min_suites":0,"max_suites":0,"min_parking":1,"max_parking":1,"min_bathrooms":1,"max_bathrooms":1,"price_per_private_square_meter":4138.0,"status":"Pronto novo","apts_per_floor":8,"number_of_floors":5,"features":["Bicicletário","Churrasqueira condominial","Elevador de serviço","Espaço gourmet","Fitness ao ar livre","Jardim","Lavanderia","Piscina adulto","Playground","Portaria","Salão de festas","Segurança"],"stock":122,"finality":"Residencial","updated_at":"22/10/2020 18:46:44","orulo_url":"https://www.orulo.com.br/buildings/12318","developer":{"id":"1054","name":"MRV RS"},"publisher":{"id":"1054","name":"MRV RS"},"address":{"street_type":"Rua","street":"das Violetas","number":724,"area":"Igara","city":"Canoas","latitude":-29.8951,"longitude":-51.1559,"state":"RS","zip_code":"92410-700"},"opportunity":{"broker":false,"client":false,"exchange_units":false},"default_image":{"id":"410139","description":"Fachada","200x140":"https://s3.amazonaws.com/uploaded.prod.corretordireto/images/properties/thumb/410139.jpg?1599077734","520x280":"https://s3.amazonaws.com/uploaded.prod.corretordireto/images/properties/featured_modern_without_watermark/410139.jpg?1599077734"}},{"id":"1829","name":"Porto Canoas","description":"Condomínio fechado com apartamentos de 2 dormitórios na Região do Estância Velha, todos com vaga de garagem. Um projeto diferenciado que oferece conforto, tranquilidade, segurança e área de lazer para sua família se divertir em qualquer momento. Venha morar na Região do Estância Velha, uma localização que oferece completa infraestrutura comercial, além de muita área verde no entorno. Próximo ao Hospital Ulbra, ParkShopping Canoas, Parque Getúlio Vargas, Todo Dia Supermercado, UniSuper Viezzer, Escola Profª. Margot Terezinha Noal Giacomazzi, a 10 minutos do Canoas Shopping Center/Carrefour e da Universidade Luterana do Brasil. Entre as principais vias de acesso estão a BR-116, Av. Boqueirão, Av. Açucena, Av. do Nazário, Av. Farroupilha e Av. Dezessete de Abril. Preço e disponibilidade do imóvel sujeitos a alteração sem aviso prévio.","min_price":174900.0,"min_area":40.83,"max_area":40.83,"min_bedrooms":2,"max_bedrooms":2,"min_suites":0,"max_suites":0,"min_parking":1,"max_parking":1,"min_bathrooms":1,"max_bathrooms":1,"price_per_private_square_meter":4284.0,"status":"Pronto novo","apts_per_floor":4,"number_of_floors":5,"features":["Churrasqueira condominial","Espaço gourmet","Playground","Portaria","Salão de festas","Vestiários"],"stock":2,"finality":"Residencial","updated_at":"22/10/2020 16:56:12","orulo_url":"https://www.orulo.com.br/buildings/1829","developer":{"id":"1054","name":"MRV RS"},"publisher":{"id":"1054","name":"MRV RS"},"address":{"street_type":"Rua","street":"Boqueirão","number":3521,"area":"Estância Velha","city":"Canoas","latitude":-29.906,"longitude":-51.1407,"state":"RS","zip_code":"92032-420"},"opportunity":{"broker":false,"client":false,"exchange_units":false},"default_image":{"id":"119863","description":"Guarita","200x140":"https://s3.amazonaws.com/uploaded.prod.corretordireto/images/properties/thumb/119863.jpg?1532191793","520x280":"https://s3.amazonaws.com/uploaded.prod.corretordireto/images/properties/featured_modern_without_watermark/119863.jpg?1532191793"}}],"total":70,"page":7,"total_pages":7}