{"buildings":[{"id":"14629","name":"Condomínio Canoas Happiness Apto AP0583REWR","description":"Apartamento no 12° andar com 88m² privativos, 03 dormitórios, sendo 01 suíte, sacada com churrasqueira, canalização embutida pronta para instalação de Splits, cozinha montada, área de serviço, banheiro auxiliar. Imóvel nunca habitado. 02 vagas de garagem cobertas e escrituradas. Além dos móveis da cozinha há 01 cooktop. Considerado uns dos melhores condomínios de canoas, conta com áreas arborizadas e ajardinadas na circulação entre as torres, com pergolados, quiosques com banco; infraestrutura completa de lazer e segurança: piscinas, salão de festas adulto, sauna e spa, salão de festas infantil, espaço gourmet, churrasqueira com forno para pizza, playground, brinquedoteca, quadra poliesportiva, sala de jogos, academia, home cinema, garage band e portaria 24hs. Localização central próximo ao Carrefour, canoas shopping, padarias, farmácias, lojas, restaurantes, supermercado e demais conveniências. Um ótimo lugar para morar! Preço e disponibilidade do imóvel sujeitos a alteração sem aviso prévio.","min_price":420000.0,"min_area":88.0,"max_area":88.0,"min_bedrooms":3,"max_bedrooms":3,"min_suites":1,"max_suites":1,"min_parking":2,"max_parking":2,"min_bathrooms":3,"max_bathrooms":3,"price_per_private_square_meter":4773.0,"status":"Usado","number_of_floors":14,"features":[],"stock":1,"finality":"Residencial","updated_at":"14/12/2020 17:51:46","orulo_url":"https://www.orulo.com.br/buildings/14629","developer":{"id":"1058","name":"REMAX Andar de Cima Exclusividades"},"publisher":{"id":"1058","name":"REMAX Andar de Cima Exclusividades"},"address":{"street_type":"Rua","street":"Doutor Barcelos","number":97,"area":"Centro","city":"Canoas","latitude":-29.9107,"longitude":-51.1852,"state":"RS","zip_code":"92310-200"},"opportunity":{"broker":false,"client":false,"exchange_units":false},"default_image":{"id":"461469","description":"","200x140":"https://s3.amazonaws.com/uploaded.prod.corretordireto/images/properties/thumb/461469.jpeg?1602567531","520x280":"https://s3.amazonaws.com/uploaded.prod.corretordireto/images/properties/featured_modern_without_watermark/461469.jpeg?1602567531"}},{"id":"675","name":"Ecco Villaggio Canoas","description":"Viver bem é um prazer que você merece. A oportunidade de morar em um local priviligiado, rodeado pela natureza, agora é realidade. Próximo ao parque Capão do Corvo, da Ulbra e de grandes centros de compra, o empreendimento dispõe de duas torres com a infra estrutura necessária para sua família, uma delas finalizada desde novembro de 2018 e a outra com previsão para março de 2019, além de excelente localização e de opções de lazer para todas as idades. Aqui começa sua nova vida. Aqui a opção é ser feliz! Preço e disponibilidade do imóvel sujeitos a alteração sem aviso prévio.","min_price":289000.0,"min_area":58.29,"max_area":106.55,"min_bedrooms":2,"max_bedrooms":2,"min_suites":1,"max_suites":1,"min_parking":1,"max_parking":1,"min_bathrooms":2,"max_bathrooms":2,"price_per_private_square_meter":4958.0,"status":"Pronto novo","apts_per_floor":8,"number_of_floors":12,"features":["Bicicletário","Brinquedoteca","Churrasqueira condominial","Cinema","Circuito de TV","Deck molhado","Depósito","Elevador social","Espaço gourmet","Fire place","Fitness","Fitness ao ar livre","Gás central condominial","Jardim","Lounge","Pet place","Piscina adulto","Piscina infantil","Playground","Portaria","Portaria 24 horas","Porteiro eletrônico","Quadra poliesportiva","Salão de festas","Zelador"],"stock":3,"finality":"Residencial","updated_at":"14/12/2020 10:56:57","orulo_url":"https://www.orulo.com.br/buildings/675","developer":{"id":"520","name":"Ticiani"},"publisher":{"id":"520","name":"Ticiani"},"address":{"street_type":"Avenida","street":"Armando Fajardo","number":1261,"area":"Igara","city":"Canoas","latitude":-29.8955,"longitude":-51.159,"state":"RS","zip_code":"92410-040"},"opportunity":{"broker":false,"client":false,"exchange_units":false},"default_image":{"id":"168920","description":"Fachada2","200x140":"https://s3.amazonaws.com/uploaded.prod.corretordireto/images/properties/thumb/168920.jpg?1542041623","520x280":"https://s3.amazonaws.com/uploaded.prod.corretordireto/images/properties/featured_modern_without_watermark/168920.jpg?1542041623"}},{"id":"15067","name":"Edifício Don Everton Apto 702","description":"Apartamento de 3 dormitórios e 1 vaga em Canoas. Preço e disponibilidade do imóvel sujeitos a alteração sem aviso prévio.","min_price":540000.0,"min_area":121.09,"max_area":121.09,"min_bedrooms":3,"max_bedrooms":3,"min_suites":0,"max_suites":0,"min_parking":1,"max_parking":1,"min_bathrooms":2,"max_bathrooms":2,"price_per_private_square_meter":4459.0,"status":"Usado","features":[],"stock":1,"finality":"Residencial","updated_at":"12/12/2020 20:28:59","orulo_url":"https://www.orulo.com.br/buildings/15067","developer":{"id":"605","name":"Linje Dações"},"publisher":{"id":"605","name":"Linje Dações"},"address":{"street_type":"Rua","street":"Ângelo Possebon","number":295,"area":"Centro","city":"Canoas","latitude":-29.9137,"longitude":-51.1892,"state":"RS","zip_code":"92310-140"},"opportunity":{"broker":false,"client":false,"exchange_units":true},"default_image":{"id":"472024","description":"Fachada","200x140":"https://s3.amazonaws.com/uploaded.prod.corretordireto/images/properties/thumb/472024.jpg?1603305932","520x280":"https://s3.amazonaws.com/uploaded.prod.corretordireto/images/properties/featured_modern_without_watermark/472024.jpg?1603305932"}},{"id":"683","name":"Gran Palace","description":"O residencial mais familiar de Canoas. Desfrute dos melhores momentos em familia. Numa excelente localização, com apartamentos de 2 e 3 dormitórios com suíte, lavabo de 61,73m² a 105,03m² privativos, com 1 ou 2 vagas de garagem. Preço e disponibilidade do imóvel sujeitos a alteração sem aviso prévio.","min_price":530450.0,"min_area":110.54,"max_area":186.07,"min_bedrooms":2,"max_bedrooms":3,"min_suites":1,"max_suites":1,"min_parking":1,"max_parking":2,"min_bathrooms":3,"max_bathrooms":3,"price_per_private_square_meter":4799.0,"status":"Pronto novo","apts_per_floor":3,"number_of_floors":11,"features":["Chimarródromo","Churrasqueira condominial","Circuito de TV","Elevador social","Espaço gourmet","Fitness","Piscina com raia","Playground","Portaria","Portaria 24 horas","Sala de jogos","Solarium","Terraço coletivo","Vestiários"],"stock":9,"finality":"Residencial","updated_at":"11/12/2020 10:58:48","orulo_url":"https://www.orulo.com.br/buildings/683","developer":{"id":"517","name":"Edarcon"},"publisher":{"id":"517","name":"Edarcon"},"address":{"street_type":"Rua","street":"Caramuru","number":21,"area":"Centro","city":"Canoas","latitude":-29.9139,"longitude":-51.1798,"state":"RS","zip_code":"92010-160"},"opportunity":{"broker":false,"client":false,"exchange_units":false},"default_image":{"id":"74903","description":"Fachada","200x140":"https://s3.amazonaws.com/uploaded.prod.corretordireto/images/properties/thumb/74903.jpg?1532133310","520x280":"https://s3.amazonaws.com/uploaded.prod.corretordireto/images/properties/featured_modern_without_watermark/74903.jpg?1532133310"}},{"id":"16943","name":"MRGV 4831 Sala 1003","description":"Sala com amplas janelas e banheiro social. Preço e disponibilidade do imóvel sujeitos a alteração sem aviso prévio.","min_price":375000.0,"min_area":34.96,"max_area":34.96,"min_bedrooms":0,"max_bedrooms":0,"min_suites":0,"max_suites":0,"min_parking":1,"max_parking":1,"min_bathrooms":1,"max_bathrooms":1,"price_per_private_square_meter":10727.0,"status":"Usado","features":[],"stock":1,"finality":"Comercial","updated_at":"10/12/2020 09:55:19","orulo_url":"https://www.orulo.com.br/buildings/16943","developer":{"id":"815","name":"Stemmer Rodrigues Dações"},"publisher":{"id":"815","name":"Stemmer Rodrigues Dações"},"address":{"street_type":"Avenida","street":"Getúlio Vargas","number":4831,"area":"Marechal Rondon","city":"Canoas","latitude":-29.9234,"longitude":-51.1776,"state":"RS","zip_code":"92020-333"},"opportunity":{"broker":false,"client":false,"exchange_units":true},"default_image":{"id":"520730","description":"Fachada","200x140":"https://s3.amazonaws.com/uploaded.prod.corretordireto/images/properties/thumb/520730.png?1606743904","520x280":"https://s3.amazonaws.com/uploaded.prod.corretordireto/images/properties/featured_modern_without_watermark/520730.png?1606743904"}},{"id":"2533","name":"MRPDG 551 Casa","description":"Ótima casa em localização nobre, 3 dormitórios, amplo living, espaço gourmet, cozinha americana, churrasqueira, pátio e vaga 2 carros. Preço e disponibilidade do imóvel sujeitos a alteração sem aviso prévio.","min_price":850000.0,"min_area":181.07,"max_area":181.07,"min_bedrooms":3,"max_bedrooms":3,"min_suites":0,"max_suites":0,"min_parking":2,"max_parking":2,"min_bathrooms":2,"max_bathrooms":2,"price_per_private_square_meter":4694.0,"status":"Usado","features":[],"stock":1,"finality":"Residencial","updated_at":"09/12/2020 10:00:34","orulo_url":"https://www.orulo.com.br/buildings/2533","developer":{"id":"710","name":"Nex Group Avulsos"},"publisher":{"id":"710","name":"Nex Group Avulsos"},"address":{"street_type":"Rua","street":"País de Gales","number":551,"area":"Marechal Rondon","city":"Canoas","latitude":-29.9174,"longitude":-51.1594,"state":"RS","zip_code":"92022-055"},"opportunity":{"broker":false,"client":false,"exchange_units":true},"default_image":{"id":"158570","description":"Fachada","200x140":"https://s3.amazonaws.com/uploaded.prod.corretordireto/images/properties/thumb/158570.png?1532550880","520x280":"https://s3.amazonaws.com/uploaded.prod.corretordireto/images/properties/featured_modern_without_watermark/158570.png?1532550880"}},{"id":"13940","name":"Linear Igara","description":"Localizado no bairro Igara, em Canoas, o empreendimento conta com acabamento de alto padrão, estilo contemporáneo e projeto flexível. Preço e disponibilidade do imóvel sujeitos a alteração sem aviso prévio.","min_price":673217.0,"min_area":130.75,"max_area":130.75,"min_bedrooms":3,"max_bedrooms":3,"min_suites":1,"max_suites":1,"min_parking":2,"max_parking":2,"min_bathrooms":3,"max_bathrooms":3,"price_per_private_square_meter":5149.0,"status":"Pronto novo","features":["Segurança"],"stock":2,"finality":"Residencial","updated_at":"04/12/2020 18:43:05","orulo_url":"https://www.orulo.com.br/buildings/13940","developer":{"id":"1139","name":"Caza Incorporações"},"publisher":{"id":"1139","name":"Caza Incorporações"},"address":{"street_type":"Rua","street":"dos Pinheiros","number":157,"area":"Igara","city":"Canoas","latitude":-29.8944,"longitude":-51.1628,"state":"RS","zip_code":"92410-230"},"opportunity":{"broker":false,"client":false,"exchange_units":false},"default_image":{"id":"443607","description":"Fachada","200x140":"https://s3.amazonaws.com/uploaded.prod.corretordireto/images/properties/thumb/443607.jpg?1601409311","520x280":"https://s3.amazonaws.com/uploaded.prod.corretordireto/images/properties/featured_modern_without_watermark/443607.jpg?1601409311"}},{"id":"11679","name":"Edifício Veneza Apto 101","description":"Apartamento de 2 dormitórios, de frente, sol da manhã e tarde. Preço e disponibilidade do imóvel sujeitos a alteração sem aviso prévio.","min_price":265000.0,"min_area":72.66,"max_area":72.66,"min_bedrooms":2,"max_bedrooms":2,"min_suites":0,"max_suites":0,"min_parking":1,"max_parking":1,"min_bathrooms":1,"max_bathrooms":1,"price_per_private_square_meter":3647.0,"status":"Usado","features":[],"stock":1,"finality":"Residencial","updated_at":"04/12/2020 07:56:09","orulo_url":"https://www.orulo.com.br/buildings/11679","developer":{"id":"506","name":"Melnick Even Dações"},"publisher":{"id":"506","name":"Melnick Even Dações"},"address":{"street_type":"Rua","street":"Santa Maria","number":829,"area":"Nossa Senhora das Graças","city":"Canoas","latitude":-29.9237,"longitude":-51.1731,"state":"RS","zip_code":"92025-390"},"opportunity":{"broker":false,"client":true,"exchange_units":true},"default_image":{"id":"391042","description":"Fachada","200x140":"https://s3.amazonaws.com/uploaded.prod.corretordireto/images/properties/thumb/391042.jpeg?1597419331","520x280":"https://s3.amazonaws.com/uploaded.prod.corretordireto/images/properties/featured_modern_without_watermark/391042.jpeg?1597419331"}},{"id":"10798","name":"Condomínio Vivendas do Parque Lote 09","description":"Lote de 450m². Preço e disponibilidade do imóvel sujeitos a alteração sem aviso prévio.","min_price":950000.0,"min_area":450.0,"max_area":450.0,"min_bedrooms":0,"max_bedrooms":0,"min_suites":0,"max_suites":0,"min_parking":0,"max_parking":0,"min_bathrooms":0,"max_bathrooms":0,"price_per_private_square_meter":2111.0,"status":"Pronto novo","features":[],"stock":1,"finality":"Residencial","updated_at":"04/12/2020 07:55:46","orulo_url":"https://www.orulo.com.br/buildings/10798","developer":{"id":"506","name":"Melnick Even Dações"},"publisher":{"id":"506","name":"Melnick Even Dações"},"address":{"street_type":"Rua","street":"Monte Castelo","number":2007,"area":"Nossa Senhora das Graças","city":"Canoas","latitude":-29.9209,"longitude":-51.1609,"state":"RS","zip_code":"92025-370"},"opportunity":{"broker":false,"client":true,"exchange_units":true},"default_image":{"id":"366201","description":"Fachada","200x140":"https://s3.amazonaws.com/uploaded.prod.corretordireto/images/properties/thumb/366201.jpg?1595508785","520x280":"https://s3.amazonaws.com/uploaded.prod.corretordireto/images/properties/featured_modern_without_watermark/366201.jpg?1595508785"}},{"id":"7879","name":"Condomínio Vivendas do Parque Lote 08","description":"Lote de 450m². Preço e disponibilidade do imóvel sujeitos a alteração sem aviso prévio.","min_price":950000.0,"min_area":450.0,"max_area":450.0,"min_bedrooms":0,"max_bedrooms":0,"min_suites":0,"max_suites":0,"min_parking":0,"max_parking":0,"min_bathrooms":0,"max_bathrooms":0,"price_per_private_square_meter":2111.0,"status":"Pronto novo","features":[],"stock":1,"finality":"Residencial","updated_at":"04/12/2020 07:55:36","orulo_url":"https://www.orulo.com.br/buildings/7879","developer":{"id":"506","name":"Melnick Even Dações"},"publisher":{"id":"506","name":"Melnick Even Dações"},"address":{"street_type":"Rua","street":"Monte Castelo","number":2007,"area":"Nossa Senhora das Graças","city":"Canoas","latitude":-29.9209,"longitude":-51.161,"state":"RS","zip_code":"92025-370"},"opportunity":{"broker":false,"client":true,"exchange_units":true},"default_image":{"id":"297253","description":"Fachada","200x140":"https://s3.amazonaws.com/uploaded.prod.corretordireto/images/properties/thumb/297253.jpg?1588722475","520x280":"https://s3.amazonaws.com/uploaded.prod.corretordireto/images/properties/featured_modern_without_watermark/297253.jpg?1588722475"}}],"total":70,"page":6,"total_pages":7}