{"buildings":[{"id":"1800","name":"Residencial Vivace Centro","description":"Belo emprendimento localizado no centro de Canoas conta com apartamentos de 1 e 2 dormitórios e churrasqueira na cozinha. Preço e disponibilidade do imóvel sujeitos a alteração sem aviso prévio.","min_price":296000.0,"min_area":52.81,"max_area":79.34,"min_bedrooms":1,"max_bedrooms":2,"min_suites":1,"max_suites":1,"min_parking":1,"max_parking":1,"min_bathrooms":1,"max_bathrooms":2,"price_per_private_square_meter":5605.0,"status":"Pronto novo","apts_per_floor":5,"number_of_floors":10,"features":["Bicicletário","Elevador de serviço","Elevador social","Lavanderia","Portaria","Salão de festas"],"stock":17,"finality":"Residencial","updated_at":"05/01/2021 15:17:25","orulo_url":"https://www.orulo.com.br/buildings/1800","developer":{"id":"513","name":"Lottici"},"publisher":{"id":"513","name":"Lottici"},"address":{"street_type":"Rua","street":"Afonso Charlier","number":70,"area":"Centro","city":"Canoas","latitude":-29.9195,"longitude":-51.1841,"state":"RS","zip_code":"92310-010"},"opportunity":{"broker":false,"client":false,"exchange_units":false},"default_image":{"id":"119326","description":"010fachada","200x140":"https://s3.amazonaws.com/uploaded.prod.corretordireto/images/properties/thumb/119326.png?1532189223","520x280":"https://s3.amazonaws.com/uploaded.prod.corretordireto/images/properties/featured_modern_without_watermark/119326.png?1532189223"}},{"id":"1737","name":"Residencial São Nicolau","description":"Apartamentos de 2 dormitórios em 49m² espalhados em 5 torres para acomodar bem sua família! Preço e disponibilidade do imóvel sujeitos a alteração sem aviso prévio.","min_price":154000.0,"min_area":49.11,"max_area":49.11,"min_bedrooms":2,"max_bedrooms":2,"min_suites":0,"max_suites":0,"min_parking":1,"max_parking":1,"min_bathrooms":1,"max_bathrooms":1,"price_per_private_square_meter":3136.0,"status":"Pronto novo","apts_per_floor":6,"number_of_floors":5,"features":[],"stock":3,"finality":"Residencial","updated_at":"05/01/2021 15:14:53","orulo_url":"https://www.orulo.com.br/buildings/1737","developer":{"id":"513","name":"Lottici"},"publisher":{"id":"513","name":"Lottici"},"address":{"street_type":"Rua","street":"São Nicolau","number":1452,"area":"Estância Velha","city":"Canoas","latitude":-29.919,"longitude":-51.1362,"state":"RS","zip_code":"92032-440"},"opportunity":{"broker":false,"client":false,"exchange_units":false},"default_image":{"id":"115279","description":"Fachada","200x140":"https://s3.amazonaws.com/uploaded.prod.corretordireto/images/properties/thumb/115279.png?1532172950","520x280":"https://s3.amazonaws.com/uploaded.prod.corretordireto/images/properties/featured_modern_without_watermark/115279.png?1532172950"}},{"id":"16409","name":"Residencial Sense","description":"O Sense Residencial é o empreendimento que voce estava esperando! Fica localizado no centro de Canoas, pertinho de tudo, trazendo mais comodidade e praticidade para seu dia a dia. Além de estar situado na melhor localização da cidade, o empreendimento conta com uma infraestrutura completa. Preço e disponibilidade do imóvel sujeitos a alteração sem aviso prévio.","min_price":202000.0,"min_area":53.63,"max_area":53.63,"min_bedrooms":2,"max_bedrooms":2,"min_suites":0,"max_suites":0,"min_parking":1,"max_parking":1,"min_bathrooms":1,"max_bathrooms":1,"price_per_private_square_meter":3767.0,"status":"Em construção","apts_per_floor":8,"number_of_floors":13,"features":["Bicicletário","Brinquedoteca","Business place","Churrasqueira condominial","Elevador de serviço","Elevador social","Fitness ao ar livre","Horta coletiva","Pet place","Piscina adulto","Piscina infantil","Pista caminhada","Playground","Portaria","Quadra poliesportiva","Salão de festas","Segurança","Terraço coletivo"],"stock":144,"finality":"Residencial","updated_at":"05/01/2021 15:14:20","orulo_url":"https://www.orulo.com.br/buildings/16409","developer":{"id":"513","name":"Lottici"},"publisher":{"id":"513","name":"Lottici"},"address":{"street_type":"Rua","street":"Carlos Drumond de Andrade","number":188,"area":"Harmonia","city":"Canoas","latitude":-29.9211,"longitude":-51.1898,"state":"RS","zip_code":"92310-050"},"opportunity":{"broker":false,"client":false,"exchange_units":false},"default_image":{"id":"505935","description":"Fachada","200x140":"https://s3.amazonaws.com/uploaded.prod.corretordireto/images/properties/thumb/505935.png?1604692019","520x280":"https://s3.amazonaws.com/uploaded.prod.corretordireto/images/properties/featured_modern_without_watermark/505935.png?1604692019"}},{"id":"616","name":"Residencial Villa di Cremona","description":"Apartamentos de 2 dormitórios de 50,64m² ou 53,79m², com churrasqueira, sacada integrada (sacada fechada), cozinha integrada, vaga privativa e possibilidade de vaga extra, espera para split nos quartos e sala (tubulação seca), espera para aquecedor a gás na cozinha e banheiro, medidores individuais de gás, água e luz. Condomínio fechado com guarita, elevador, 2 salões de festas mobiliados, quadra esportiva infantil, playground. Preço e disponibilidade do imóvel sujeitos a alteração sem aviso prévio.","min_price":195000.0,"min_area":54.3,"max_area":54.3,"min_bedrooms":2,"max_bedrooms":2,"min_suites":0,"max_suites":0,"min_parking":1,"max_parking":1,"min_bathrooms":1,"max_bathrooms":1,"price_per_private_square_meter":3591.0,"status":"Pronto novo","apts_per_floor":6,"number_of_floors":8,"features":["Brinquedoteca","Chimarródromo","Churrasqueira condominial","Circuito de TV","Depósito","Elevador social","Espaço gourmet","Estacionamento para visitantes","Fitness ao ar livre","Gás central condominial","Jardim","Playground","Portaria","Portaria 24 horas","Porteiro eletrônico","Praça","Quadra poliesportiva","Salão de festas","Segurança","Zelador"],"stock":17,"finality":"Residencial","updated_at":"05/01/2021 15:13:54","orulo_url":"https://www.orulo.com.br/buildings/616","developer":{"id":"513","name":"Lottici"},"publisher":{"id":"513","name":"Lottici"},"address":{"street_type":"Rua","street":"Joaquim Caetano","number":660,"area":"Fátima","city":"Canoas","latitude":-29.9477,"longitude":-51.1884,"state":"RS","zip_code":"92200-410"},"opportunity":{"broker":false,"client":false,"exchange_units":false},"default_image":{"id":"74919","description":"Fachada","200x140":"https://s3.amazonaws.com/uploaded.prod.corretordireto/images/properties/thumb/74919.jpg?1532133376","520x280":"https://s3.amazonaws.com/uploaded.prod.corretordireto/images/properties/featured_modern_without_watermark/74919.jpg?1532133376"}},{"id":"15909","name":"Edifício Liana - Residencial","description":"Próximo ao HUB da saúde de Canoas e ao Zaffari Bourbon, a 5 minutos do Park Shopping Canoas. Preço e disponibilidade do imóvel sujeitos a alteração sem aviso prévio.","min_price":379329.84,"min_area":72.92,"max_area":72.92,"min_bedrooms":2,"max_bedrooms":2,"min_suites":1,"max_suites":1,"min_parking":2,"max_parking":2,"min_bathrooms":2,"max_bathrooms":2,"price_per_private_square_meter":5202.0,"status":"Em construção","apts_per_floor":4,"number_of_floors":8,"features":["Brinquedoteca","Elevador codificado","Elevador social","Fitness","Portaria","Salão de festas","Segurança"],"stock":13,"finality":"Residencial","updated_at":"04/01/2021 17:52:27","orulo_url":"https://www.orulo.com.br/buildings/15909","developer":{"id":"1166","name":"Resida Incorporações e Construções"},"publisher":{"id":"1166","name":"Resida Incorporações e Construções"},"address":{"street_type":"Rua","street":"Santa Maria","number":420,"area":"Nossa Senhora das Graças","city":"Canoas","latitude":-29.9267,"longitude":-51.1752,"state":"RS","zip_code":"92025-390"},"opportunity":{"broker":false,"client":false,"exchange_units":false},"default_image":{"id":"492290","description":"Fachada","200x140":"https://s3.amazonaws.com/uploaded.prod.corretordireto/images/properties/thumb/492290.jpeg?1604071090","520x280":"https://s3.amazonaws.com/uploaded.prod.corretordireto/images/properties/featured_modern_without_watermark/492290.jpeg?1604071090"}},{"id":"634","name":"Solar Méditerraneé","description":"Este empreendimento foi projetado para representantes que sabem o que querem, e buscam o melhor local para se viver. São 16 apartamentos com uma ampla área social de 53,4m2, 2 e 3 dormitórios, garagem para 2 carros com depósito. Além disto um salão de festas com tudo de bom, para receber a família e os amigos num almoço, jantar ou happyhour. A localização é nobre, em rua arborizada e tranquila próximo a tudo. Um empreendimento sinônimo de requinte, bom gosto e sofisticação. Preço e disponibilidade do imóvel sujeitos a alteração sem aviso prévio.","min_price":780000.0,"min_area":125.92,"max_area":125.92,"min_bedrooms":3,"max_bedrooms":3,"min_suites":1,"max_suites":1,"min_parking":2,"max_parking":2,"min_bathrooms":1,"max_bathrooms":1,"price_per_private_square_meter":6194.0,"status":"Pronto novo","apts_per_floor":3,"number_of_floors":6,"features":["Chimarródromo","Circuito de TV","Depósito","Elevador social","Gás central condominial","Jardim","Porteiro eletrônico","Salão de festas","Segurança"],"stock":1,"finality":"Residencial","updated_at":"04/01/2021 17:52:19","orulo_url":"https://www.orulo.com.br/buildings/634","developer":{"id":"279","name":"Gobbi"},"publisher":{"id":"279","name":"Gobbi"},"address":{"street_type":"Rua","street":"Vasco da Gama","number":180,"area":"Centro","city":"Canoas","latitude":-29.9165,"longitude":-51.1881,"state":"RS","zip_code":"92310-340"},"opportunity":{"broker":false,"client":false,"exchange_units":false},"default_image":{"id":"74891","description":"Fachada","200x140":"https://s3.amazonaws.com/uploaded.prod.corretordireto/images/properties/thumb/74891.jpg?1532133175","520x280":"https://s3.amazonaws.com/uploaded.prod.corretordireto/images/properties/featured_modern_without_watermark/74891.jpg?1532133175"}},{"id":"5295","name":"COMO Residencial","description":"Une em um único lugar as facilidades de uma cidade moderna com a beleza de uma arquitetura impactante. E é exatamente isso que foi idealizado: resgatar o vigor e a vitalidade do centro de Canoas. Onde todas as facilidades de acesso e conveniência de morar no centro são somadas ao design contemporâneo e revigorante do empreendimento. Aqui você escolhe se tira o carro da garagem ou aproveita o dia caminhando em segurança. Preço e disponibilidade do imóvel sujeitos a alteração sem aviso prévio.","min_price":358606.87,"min_area":55.13,"max_area":83.5,"min_bedrooms":2,"max_bedrooms":3,"min_suites":1,"max_suites":2,"min_parking":1,"max_parking":1,"min_bathrooms":2,"max_bathrooms":3,"price_per_private_square_meter":6505.0,"status":"Em construção","apts_per_floor":6,"number_of_floors":9,"features":["Circuito de TV","Elevador social","Portaria","Salão de festas","Segurança"],"stock":7,"finality":"Residencial","updated_at":"04/01/2021 17:52:01","orulo_url":"https://www.orulo.com.br/buildings/5295","developer":{"id":"279","name":"Gobbi"},"publisher":{"id":"279","name":"Gobbi"},"address":{"street_type":"Rua","street":"Napoleão Laureano","number":90,"area":"Centro","city":"Canoas","latitude":-29.9134,"longitude":-51.1813,"state":"RS","zip_code":"92010-190"},"opportunity":{"broker":false,"client":false,"exchange_units":false},"default_image":{"id":"233457","description":"Fachada","200x140":"https://s3.amazonaws.com/uploaded.prod.corretordireto/images/properties/thumb/233457.jpg?1575984826","520x280":"https://s3.amazonaws.com/uploaded.prod.corretordireto/images/properties/featured_modern_without_watermark/233457.jpg?1575984826"}},{"id":"633","name":"Solar Toscana","description":"Traduzimos os atributos de uma das regiões mais bonitas da Itália para criar o mais charmoso empreendimento imobiliário dos últimos anos. Onde a palavra “casa” finalmente se transforma em “lar”. Uma única torre com apenas cinco apartamentos por andar e mais espaço lazer, piscinas, kids place lounge e espaço zen. Cada ambiente, cada espaço, cada instalação foi minuciosamente desenvolvido para oferecer apenas o melhor em conforto, lazer e segurança. Um lugar encantador que mescla passado e futuro em todos os detalhes. E a cada passo surpreende olhos e corações. Preço e disponibilidade do imóvel sujeitos a alteração sem aviso prévio.","min_price":550088.73,"min_area":83.31,"max_area":83.31,"min_bedrooms":2,"max_bedrooms":2,"min_suites":1,"max_suites":1,"min_parking":2,"max_parking":2,"min_bathrooms":2,"max_bathrooms":2,"price_per_private_square_meter":6603.0,"status":"Pronto novo","apts_per_floor":5,"number_of_floors":11,"features":["Brinquedoteca","Business place","Chimarródromo","Circuito de TV","Elevador de serviço","Elevador social","Espaço gourmet","Estacionamento para visitantes","Gás central condominial","Jardim","Piscina adulto","Playground","Portaria","Porteiro eletrônico","Salão de festas","Segurança"],"stock":2,"finality":"Residencial","updated_at":"04/01/2021 17:51:38","orulo_url":"https://www.orulo.com.br/buildings/633","developer":{"id":"279","name":"Gobbi"},"publisher":{"id":"279","name":"Gobbi"},"address":{"street_type":"Rua","street":"Dom Pedro II","number":130,"area":"Nossa Senhora das Graças","city":"Canoas","latitude":-29.9299,"longitude":-51.1703,"state":"RS","zip_code":"92110-044"},"opportunity":{"broker":false,"client":false,"exchange_units":false},"default_image":{"id":"74892","description":"Fachada","200x140":"https://s3.amazonaws.com/uploaded.prod.corretordireto/images/properties/thumb/74892.jpg?1532133179","520x280":"https://s3.amazonaws.com/uploaded.prod.corretordireto/images/properties/featured_modern_without_watermark/74892.jpg?1532133179"}},{"id":"632","name":"Solar Milão","description":"Localizado no coração de Canoas, em zona residencial arborizada e tranquila. São 14 apartamentos de 3 dormitórios de alto padrão, com ampla área de estar e excelente acabamento. Um empreendimento único, para quem quer exclusividade, conforto, tranquilidade e sofisticação. Nas ruas tranquilas do bairro você vai poder caminhar, passear e descansar, sem perder a comodidade de estar no centro da cidade, próximo a todos os principais pontos urbanos de Canoas. Venha conhecer este empreendimento, você vai se encantar. Preço e disponibilidade do imóvel sujeitos a alteração sem aviso prévio.","min_price":780000.0,"min_area":119.82,"max_area":119.82,"min_bedrooms":3,"max_bedrooms":3,"min_suites":1,"max_suites":1,"min_parking":2,"max_parking":2,"min_bathrooms":2,"max_bathrooms":2,"price_per_private_square_meter":6510.0,"status":"Pronto novo","apts_per_floor":2,"number_of_floors":8,"features":["Chimarródromo","Circuito de TV","Elevador social","Gás central condominial","Jardim","Porteiro eletrônico","Salão de festas","Segurança"],"stock":1,"finality":"Residencial","updated_at":"04/01/2021 17:51:28","orulo_url":"https://www.orulo.com.br/buildings/632","developer":{"id":"279","name":"Gobbi"},"publisher":{"id":"279","name":"Gobbi"},"address":{"street_type":"Rua","street":"Coelho Neto","number":185,"area":"Centro","city":"Canoas","latitude":-29.9155,"longitude":-51.1877,"state":"RS","zip_code":"92310-180"},"opportunity":{"broker":false,"client":false,"exchange_units":false},"default_image":{"id":"74890","description":"Fachada","200x140":"https://s3.amazonaws.com/uploaded.prod.corretordireto/images/properties/thumb/74890.jpg?1532133171","520x280":"https://s3.amazonaws.com/uploaded.prod.corretordireto/images/properties/featured_modern_without_watermark/74890.jpg?1532133171"}},{"id":"478","name":"Stellato","description":"O clima de tranquilidade, as ruas arborizadas, a vista panorâmica e a facilidade de acesso aos principais pontos da cidade combinam-se em um verdadeiro espetáculo que irá valorizar em muito a sua vida. Preço e disponibilidade do imóvel sujeitos a alteração sem aviso prévio.","min_price":453972.75,"min_area":78.61,"max_area":78.61,"min_bedrooms":3,"max_bedrooms":3,"min_suites":1,"max_suites":1,"min_parking":1,"max_parking":1,"min_bathrooms":2,"max_bathrooms":2,"price_per_private_square_meter":5775.0,"status":"Pronto novo","apts_per_floor":6,"number_of_floors":13,"features":["Brinquedoteca","Churrasqueira condominial","Elevador social","Espaço gourmet","Fitness","Gerador","Gás central condominial","Lavanderia","Piscina adulto","Piscina infantil","Playground","Portaria 24 horas","Salão de festas","Solarium"],"stock":1,"finality":"Residencial","updated_at":"04/01/2021 16:46:03","orulo_url":"https://www.orulo.com.br/buildings/478","developer":{"id":"162","name":"Nex Group"},"publisher":{"id":"162","name":"Nex Group"},"address":{"street_type":"Rua","street":"da Figueira","number":770,"area":"Nossa Senhora das Graças","city":"Canoas","latitude":-29.9312,"longitude":-51.1693,"state":"RS","zip_code":"92110-040"},"opportunity":{"broker":false,"client":false,"exchange_units":false},"default_image":{"id":"74923","description":"Fachada","200x140":"https://s3.amazonaws.com/uploaded.prod.corretordireto/images/properties/thumb/74923.jpg?1532133427","520x280":"https://s3.amazonaws.com/uploaded.prod.corretordireto/images/properties/featured_modern_without_watermark/74923.jpg?1532133427"}}],"total":70,"page":2,"total_pages":7}